strict digraph "compose( ,  )" {
	node [label="\N"];
	"383:BS"	 [ast="<pyverilog.vparser.ast.BlockingSubstitution object at 0x7f5b8a2c78d0>",
		fillcolor=cadetblue,
		label="383:BS
illegal_instr_o = 1'bX;",
		statements="[<pyverilog.vparser.ast.BlockingSubstitution object at 0x7f5b8a2c78d0>]",
		style=filled,
		typ=BlockingSubstitution];
	"Leaf_341:AL"	 [def_var="['instr_o', 'illegal_instr_o']",
		label="Leaf_341:AL"];
	"383:BS" -> "Leaf_341:AL"	 [cond="[]",
		lineno=None];
	"369:CS"	 [ast="<pyverilog.vparser.ast.CaseStatement object at 0x7f5b8a2b3590>",
		fillcolor=linen,
		label="369:CS",
		statements="[]",
		style=filled,
		typ=CaseStatement];
	"370:CA"	 [ast="<pyverilog.vparser.ast.Case object at 0x7f5b8a2b4310>",
		fillcolor=lightcyan,
		label="370:CA",
		statements="[]",
		style=filled,
		typ=Case];
	"369:CS" -> "370:CA"	 [cond="['instr_i']",
		label="instr_i[11:10]",
		lineno=369];
	"376:CA"	 [ast="<pyverilog.vparser.ast.Case object at 0x7f5b8a2b36d0>",
		fillcolor=lightcyan,
		label="376:CA",
		statements="[]",
		style=filled,
		typ=Case];
	"369:CS" -> "376:CA"	 [cond="['instr_i']",
		label="instr_i[11:10]",
		lineno=369];
	"375:CA"	 [ast="<pyverilog.vparser.ast.Case object at 0x7f5b8a2b4d90>",
		fillcolor=lightcyan,
		label="375:CA",
		statements="[]",
		style=filled,
		typ=Case];
	"369:CS" -> "375:CA"	 [cond="['instr_i']",
		label="instr_i[11:10]",
		lineno=369];
	"385:CA"	 [ast="<pyverilog.vparser.ast.Case object at 0x7f5b8a2c7690>",
		fillcolor=lightcyan,
		label="385:CA",
		statements="[]",
		style=filled,
		typ=Case];
	"369:CS" -> "385:CA"	 [cond="['instr_i']",
		label="instr_i[11:10]",
		lineno=369];
	"388:CA"	 [ast="<pyverilog.vparser.ast.Case object at 0x7f5b8a2db5d0>",
		fillcolor=lightcyan,
		label="388:CA",
		statements="[]",
		style=filled,
		typ=Case];
	"388:BS"	 [ast="<pyverilog.vparser.ast.BlockingSubstitution object at 0x7f5b8a2db6d0>",
		fillcolor=cadetblue,
		label="388:BS
illegal_instr_o = 1'bX;",
		statements="[<pyverilog.vparser.ast.BlockingSubstitution object at 0x7f5b8a2db6d0>]",
		style=filled,
		typ=BlockingSubstitution];
	"388:CA" -> "388:BS"	 [cond="[]",
		lineno=None];
	"353:BS"	 [ast="<pyverilog.vparser.ast.BlockingSubstitution object at 0x7f5b8a2c9b50>",
		fillcolor=cadetblue,
		label="353:BS
instr_o = { 5'b0, instr_i[5], instr_i[12], 2'b01, instr_i[4:2], 2'b01, instr_i[9:7], 3'b010, instr_i[11:10], instr_i[6], \
2'b00, OPCODE_STORE };",
		statements="[<pyverilog.vparser.ast.BlockingSubstitution object at 0x7f5b8a2c9b50>]",
		style=filled,
		typ=BlockingSubstitution];
	"353:BS" -> "Leaf_341:AL"	 [cond="[]",
		lineno=None];
	"399:IF"	 [ast="<pyverilog.vparser.ast.IfStatement object at 0x7f5b8a2bcbd0>",
		fillcolor=springgreen,
		label="399:IF",
		statements="[]",
		style=filled,
		typ=IfStatement];
	"400:BS"	 [ast="<pyverilog.vparser.ast.BlockingSubstitution object at 0x7f5b8a2bcd10>",
		fillcolor=cadetblue,
		label="400:BS
illegal_instr_o = 1'b1;",
		statements="[<pyverilog.vparser.ast.BlockingSubstitution object at 0x7f5b8a2bcd10>]",
		style=filled,
		typ=BlockingSubstitution];
	"399:IF" -> "400:BS"	 [cond="['instr_i']",
		label="(instr_i[11:7] == 5'b0)",
		lineno=399];
	"341:AL"	 [ast="<pyverilog.vparser.ast.Always object at 0x7f5b8aa96710>",
		clk_sens=False,
		fillcolor=gold,
		label="341:AL",
		sens="['OPCODE_STORE', 'instr_i', 'OPCODE_OP_IMM', 'OPCODE_JAL', 'OPCODE_LOAD', 'OPCODE_LUI', 'OPCODE_JALR', 'OPCODE_BRANCH', 'OPCODE_\
OP']",
		statements="[]",
		style=filled,
		typ=Always,
		use_var="['OPCODE_STORE', 'instr_i', 'OPCODE_OP_IMM', 'OPCODE_JAL', 'OPCODE_LOAD', 'OPCODE_LUI', 'OPCODE_JALR', 'OPCODE_BRANCH', 'OPCODE_\
OP']"];
	"341:BL"	 [ast="<pyverilog.vparser.ast.Block object at 0x7f5b8aa96a50>",
		fillcolor=turquoise,
		label="341:BL
illegal_instr_o = 1'b0;
instr_o = 1'bX;",
		statements="[<pyverilog.vparser.ast.BlockingSubstitution object at 0x7f5b8aa96850>, <pyverilog.vparser.ast.BlockingSubstitution object at 0x7f5b8aa969d0>]",
		style=filled,
		typ=Block];
	"341:AL" -> "341:BL"	 [cond="[]",
		lineno=None];
	"418:CA"	 [ast="<pyverilog.vparser.ast.Case object at 0x7f5b8a2dec90>",
		fillcolor=lightcyan,
		label="418:CA",
		statements="[]",
		style=filled,
		typ=Case];
	"418:BS"	 [ast="<pyverilog.vparser.ast.BlockingSubstitution object at 0x7f5b8aa2d150>",
		fillcolor=cadetblue,
		label="418:BS
instr_o = { 4'b0, instr_i[8:7], instr_i[12], instr_i[6:2], 5'h02, 3'b010, instr_i[11:9], 2'b00, OPCODE_STORE };",
		statements="[<pyverilog.vparser.ast.BlockingSubstitution object at 0x7f5b8aa2d150>]",
		style=filled,
		typ=BlockingSubstitution];
	"418:CA" -> "418:BS"	 [cond="[]",
		lineno=None];
	"354:BS"	 [ast="<pyverilog.vparser.ast.BlockingSubstitution object at 0x7f5b8a2c9d10>",
		fillcolor=cadetblue,
		label="354:BS
illegal_instr_o = 1'b1;",
		statements="[<pyverilog.vparser.ast.BlockingSubstitution object at 0x7f5b8a2c9d10>]",
		style=filled,
		typ=BlockingSubstitution];
	"354:BS" -> "Leaf_341:AL"	 [cond="[]",
		lineno=None];
	"404:IF"	 [ast="<pyverilog.vparser.ast.IfStatement object at 0x7f5b8a2de550>",
		fillcolor=springgreen,
		label="404:IF",
		statements="[]",
		style=filled,
		typ=IfStatement];
	"405:BS"	 [ast="<pyverilog.vparser.ast.BlockingSubstitution object at 0x7f5b8a2de610>",
		fillcolor=cadetblue,
		label="405:BS
instr_o = { 7'b0, instr_i[6:2], 5'b0, 3'b0, instr_i[11:7], OPCODE_OP };",
		statements="[<pyverilog.vparser.ast.BlockingSubstitution object at 0x7f5b8a2de610>]",
		style=filled,
		typ=BlockingSubstitution];
	"404:IF" -> "405:BS"	 [cond="['instr_i']",
		label="(instr_i[6:2] != 5'b0)",
		lineno=404];
	"406:BL"	 [ast="<pyverilog.vparser.ast.Block object at 0x7f5b8a2dea50>",
		fillcolor=turquoise,
		label="406:BL
instr_o = { 12'b0, instr_i[11:7], 3'b0, 5'b0, OPCODE_JALR };",
		statements="[<pyverilog.vparser.ast.BlockingSubstitution object at 0x7f5b8a2dea10>]",
		style=filled,
		typ=Block];
	"404:IF" -> "406:BL"	 [cond="['instr_i']",
		label="!((instr_i[6:2] != 5'b0))",
		lineno=404];
	"344:CS"	 [ast="<pyverilog.vparser.ast.CaseStatement object at 0x7f5b8a2db690>",
		fillcolor=linen,
		label="344:CS",
		statements="[]",
		style=filled,
		typ=CaseStatement];
	"345:CA"	 [ast="<pyverilog.vparser.ast.Case object at 0x7f5b8aa96c50>",
		fillcolor=lightcyan,
		label="345:CA",
		statements="[]",
		style=filled,
		typ=Case];
	"344:CS" -> "345:CA"	 [cond="['instr_i']",
		label="instr_i[1:0]",
		lineno=344];
	"422:CA"	 [ast="<pyverilog.vparser.ast.Case object at 0x7f5b8aa2d650>",
		fillcolor=lightcyan,
		label="422:CA",
		statements="[]",
		style=filled,
		typ=Case];
	"344:CS" -> "422:CA"	 [cond="['instr_i']",
		label="instr_i[1:0]",
		lineno=344];
	"390:CA"	 [ast="<pyverilog.vparser.ast.Case object at 0x7f5b8a2db750>",
		fillcolor=lightcyan,
		label="390:CA",
		statements="[]",
		style=filled,
		typ=Case];
	"344:CS" -> "390:CA"	 [cond="['instr_i']",
		label="instr_i[1:0]",
		lineno=344];
	"356:CA"	 [ast="<pyverilog.vparser.ast.Case object at 0x7f5b8a2c9a10>",
		fillcolor=lightcyan,
		label="356:CA",
		statements="[]",
		style=filled,
		typ=Case];
	"344:CS" -> "356:CA"	 [cond="['instr_i']",
		label="instr_i[1:0]",
		lineno=344];
	"420:BS"	 [ast="<pyverilog.vparser.ast.BlockingSubstitution object at 0x7f5b8aa2d5d0>",
		fillcolor=cadetblue,
		label="420:BS
illegal_instr_o = 1'bX;",
		statements="[<pyverilog.vparser.ast.BlockingSubstitution object at 0x7f5b8aa2d5d0>]",
		style=filled,
		typ=BlockingSubstitution];
	"420:BS" -> "Leaf_341:AL"	 [cond="[]",
		lineno=None];
	"370:BL"	 [ast="<pyverilog.vparser.ast.Block object at 0x7f5b8a2b4a50>",
		fillcolor=turquoise,
		label="370:BL
instr_o = { 1'b0, instr_i[10], 5'b0, instr_i[6:2], 2'b01, instr_i[9:7], 3'b101, 2'b01, instr_i[9:7], OPCODE_OP_IMM };",
		statements="[<pyverilog.vparser.ast.BlockingSubstitution object at 0x7f5b8a2b4a10>]",
		style=filled,
		typ=Block];
	"370:CA" -> "370:BL"	 [cond="[]",
		lineno=None];
	"372:IF"	 [ast="<pyverilog.vparser.ast.IfStatement object at 0x7f5b8a2b4c10>",
		fillcolor=springgreen,
		label="372:IF",
		statements="[]",
		style=filled,
		typ=IfStatement];
	"373:BS"	 [ast="<pyverilog.vparser.ast.BlockingSubstitution object at 0x7f5b8a2b4d50>",
		fillcolor=cadetblue,
		label="373:BS
illegal_instr_o = 1'b1;",
		statements="[<pyverilog.vparser.ast.BlockingSubstitution object at 0x7f5b8a2b4d50>]",
		style=filled,
		typ=BlockingSubstitution];
	"372:IF" -> "373:BS"	 [cond="['instr_i']",
		label="(instr_i[12] == 1'b1)",
		lineno=372];
	"405:BS" -> "Leaf_341:AL"	 [cond="[]",
		lineno=None];
	"346:CS"	 [ast="<pyverilog.vparser.ast.CaseStatement object at 0x7f5b8a2c9b90>",
		fillcolor=linen,
		label="346:CS",
		statements="[]",
		style=filled,
		typ=CaseStatement];
	"345:CA" -> "346:CS"	 [cond="[]",
		lineno=None];
	"422:BS"	 [ast="<pyverilog.vparser.ast.BlockingSubstitution object at 0x7f5b8aa2d6d0>",
		fillcolor=cadetblue,
		label="422:BS
instr_o = instr_i;",
		statements="[<pyverilog.vparser.ast.BlockingSubstitution object at 0x7f5b8aa2d6d0>]",
		style=filled,
		typ=BlockingSubstitution];
	"422:CA" -> "422:BS"	 [cond="[]",
		lineno=None];
	"353:CA"	 [ast="<pyverilog.vparser.ast.Case object at 0x7f5b8a2c9310>",
		fillcolor=lightcyan,
		label="353:CA",
		statements="[]",
		style=filled,
		typ=Case];
	"353:CA" -> "353:BS"	 [cond="[]",
		lineno=None];
	"414:IF"	 [ast="<pyverilog.vparser.ast.IfStatement object at 0x7f5b8aa28810>",
		fillcolor=springgreen,
		label="414:IF",
		statements="[]",
		style=filled,
		typ=IfStatement];
	"415:BS"	 [ast="<pyverilog.vparser.ast.BlockingSubstitution object at 0x7f5b8aa28850>",
		fillcolor=cadetblue,
		label="415:BS
instr_o = 32'h00_10_00_73;",
		statements="[<pyverilog.vparser.ast.BlockingSubstitution object at 0x7f5b8aa28850>]",
		style=filled,
		typ=BlockingSubstitution];
	"414:IF" -> "415:BS"	 [cond="['instr_i']",
		label="(instr_i[11:7] == 5'b0)",
		lineno=414];
	"417:BS"	 [ast="<pyverilog.vparser.ast.BlockingSubstitution object at 0x7f5b8aa28c10>",
		fillcolor=cadetblue,
		label="417:BS
instr_o = { 12'b0, instr_i[11:7], 3'b000, 5'b00001, OPCODE_JALR };",
		statements="[<pyverilog.vparser.ast.BlockingSubstitution object at 0x7f5b8aa28c10>]",
		style=filled,
		typ=BlockingSubstitution];
	"414:IF" -> "417:BS"	 [cond="['instr_i']",
		label="!((instr_i[11:7] == 5'b0))",
		lineno=414];
	"361:CA"	 [ast="<pyverilog.vparser.ast.Case object at 0x7f5b8a2aba90>",
		fillcolor=lightcyan,
		label="361:CA",
		statements="[]",
		style=filled,
		typ=Case];
	"361:BL"	 [ast="<pyverilog.vparser.ast.Block object at 0x7f5b8a2d5c50>",
		fillcolor=turquoise,
		label="361:BL
instr_o = { { 15{ instr_i[12] } }, instr_i[6:2], instr_i[11:7], OPCODE_LUI };",
		statements="[<pyverilog.vparser.ast.BlockingSubstitution object at 0x7f5b8a2d5190>]",
		style=filled,
		typ=Block];
	"361:CA" -> "361:BL"	 [cond="[]",
		lineno=None];
	"370:BL" -> "372:IF"	 [cond="[]",
		lineno=None];
	"357:CS"	 [ast="<pyverilog.vparser.ast.CaseStatement object at 0x7f5b8a2db550>",
		fillcolor=linen,
		label="357:CS",
		statements="[]",
		style=filled,
		typ=CaseStatement];
	"357:CS" -> "388:CA"	 [cond="['instr_i']",
		label="instr_i[15:13]",
		lineno=357];
	"357:CS" -> "361:CA"	 [cond="['instr_i']",
		label="instr_i[15:13]",
		lineno=357];
	"368:CA"	 [ast="<pyverilog.vparser.ast.Case object at 0x7f5b8a2d5fd0>",
		fillcolor=lightcyan,
		label="368:CA",
		statements="[]",
		style=filled,
		typ=Case];
	"357:CS" -> "368:CA"	 [cond="['instr_i']",
		label="instr_i[15:13]",
		lineno=357];
	"359:CA"	 [ast="<pyverilog.vparser.ast.Case object at 0x7f5b8a2c8710>",
		fillcolor=lightcyan,
		label="359:CA",
		statements="[]",
		style=filled,
		typ=Case];
	"357:CS" -> "359:CA"	 [cond="['instr_i']",
		label="instr_i[15:13]",
		lineno=357];
	"387:CA"	 [ast="<pyverilog.vparser.ast.Case object at 0x7f5b8a2c79d0>",
		fillcolor=lightcyan,
		label="387:CA",
		statements="[]",
		style=filled,
		typ=Case];
	"357:CS" -> "387:CA"	 [cond="['instr_i']",
		label="instr_i[15:13]",
		lineno=357];
	"360:CA"	 [ast="<pyverilog.vparser.ast.Case object at 0x7f5b8a2ab450>",
		fillcolor=lightcyan,
		label="360:CA",
		statements="[]",
		style=filled,
		typ=Case];
	"357:CS" -> "360:CA"	 [cond="['instr_i']",
		label="instr_i[15:13]",
		lineno=357];
	"358:CA"	 [ast="<pyverilog.vparser.ast.Case object at 0x7f5b8a2c9fd0>",
		fillcolor=lightcyan,
		label="358:CA",
		statements="[]",
		style=filled,
		typ=Case];
	"357:CS" -> "358:CA"	 [cond="['instr_i']",
		label="instr_i[15:13]",
		lineno=357];
	"346:CS" -> "353:CA"	 [cond="['instr_i']",
		label="instr_i[15:13]",
		lineno=346];
	"354:CA"	 [ast="<pyverilog.vparser.ast.Case object at 0x7f5b8a2c9c10>",
		fillcolor=lightcyan,
		label="354:CA",
		statements="[]",
		style=filled,
		typ=Case];
	"346:CS" -> "354:CA"	 [cond="['instr_i']",
		label="instr_i[15:13]",
		lineno=346];
	"347:CA"	 [ast="<pyverilog.vparser.ast.Case object at 0x7f5b8aa96e90>",
		fillcolor=lightcyan,
		label="347:CA",
		statements="[]",
		style=filled,
		typ=Case];
	"346:CS" -> "347:CA"	 [cond="['instr_i']",
		label="instr_i[15:13]",
		lineno=346];
	"352:CA"	 [ast="<pyverilog.vparser.ast.Case object at 0x7f5b8aa98a90>",
		fillcolor=lightcyan,
		label="352:CA",
		statements="[]",
		style=filled,
		typ=Case];
	"346:CS" -> "352:CA"	 [cond="['instr_i']",
		label="instr_i[15:13]",
		lineno=346];
	"385:BS"	 [ast="<pyverilog.vparser.ast.BlockingSubstitution object at 0x7f5b8a2c7a10>",
		fillcolor=cadetblue,
		label="385:BS
illegal_instr_o = 1'bX;",
		statements="[<pyverilog.vparser.ast.BlockingSubstitution object at 0x7f5b8a2c7a10>]",
		style=filled,
		typ=BlockingSubstitution];
	"385:BS" -> "Leaf_341:AL"	 [cond="[]",
		lineno=None];
	"413:BS"	 [ast="<pyverilog.vparser.ast.BlockingSubstitution object at 0x7f5b8aa28450>",
		fillcolor=cadetblue,
		label="413:BS
instr_o = { 7'b0, instr_i[6:2], instr_i[11:7], 3'b0, instr_i[11:7], OPCODE_OP };",
		statements="[<pyverilog.vparser.ast.BlockingSubstitution object at 0x7f5b8aa28450>]",
		style=filled,
		typ=BlockingSubstitution];
	"413:BS" -> "Leaf_341:AL"	 [cond="[]",
		lineno=None];
	"419:CA"	 [ast="<pyverilog.vparser.ast.Case object at 0x7f5b8aa2d1d0>",
		fillcolor=lightcyan,
		label="419:CA",
		statements="[]",
		style=filled,
		typ=Case];
	"419:BS"	 [ast="<pyverilog.vparser.ast.BlockingSubstitution object at 0x7f5b8aa2d3d0>",
		fillcolor=cadetblue,
		label="419:BS
illegal_instr_o = 1'b1;",
		statements="[<pyverilog.vparser.ast.BlockingSubstitution object at 0x7f5b8aa2d3d0>]",
		style=filled,
		typ=BlockingSubstitution];
	"419:CA" -> "419:BS"	 [cond="[]",
		lineno=None];
	"382:CA"	 [ast="<pyverilog.vparser.ast.Case object at 0x7f5b8a2c74d0>",
		fillcolor=lightcyan,
		label="382:CA",
		statements="[]",
		style=filled,
		typ=Case];
	"382:BS"	 [ast="<pyverilog.vparser.ast.BlockingSubstitution object at 0x7f5b8a2c76d0>",
		fillcolor=cadetblue,
		label="382:BS
illegal_instr_o = 1'b1;",
		statements="[<pyverilog.vparser.ast.BlockingSubstitution object at 0x7f5b8a2c76d0>]",
		style=filled,
		typ=BlockingSubstitution];
	"382:CA" -> "382:BS"	 [cond="[]",
		lineno=None];
	"394:IF"	 [ast="<pyverilog.vparser.ast.IfStatement object at 0x7f5b8a2bc110>",
		fillcolor=springgreen,
		label="394:IF",
		statements="[]",
		style=filled,
		typ=IfStatement];
	"395:BS"	 [ast="<pyverilog.vparser.ast.BlockingSubstitution object at 0x7f5b8a2bc250>",
		fillcolor=cadetblue,
		label="395:BS
illegal_instr_o = 1'b1;",
		statements="[<pyverilog.vparser.ast.BlockingSubstitution object at 0x7f5b8a2bc250>]",
		style=filled,
		typ=BlockingSubstitution];
	"394:IF" -> "395:BS"	 [cond="['instr_i']",
		label="(instr_i[12] == 1'b1)",
		lineno=394];
	"402:CA"	 [ast="<pyverilog.vparser.ast.Case object at 0x7f5b8a2bccd0>",
		fillcolor=lightcyan,
		label="402:CA",
		statements="[]",
		style=filled,
		typ=Case];
	"403:IF"	 [ast="<pyverilog.vparser.ast.IfStatement object at 0x7f5b8a2bce50>",
		fillcolor=springgreen,
		label="403:IF",
		statements="[]",
		style=filled,
		typ=IfStatement];
	"402:CA" -> "403:IF"	 [cond="[]",
		lineno=None];
	"381:BS"	 [ast="<pyverilog.vparser.ast.BlockingSubstitution object at 0x7f5b8a2c7410>",
		fillcolor=cadetblue,
		label="381:BS
instr_o = { 7'b0, 2'b01, instr_i[4:2], 2'b01, instr_i[9:7], 3'b111, 2'b01, instr_i[9:7], OPCODE_OP };",
		statements="[<pyverilog.vparser.ast.BlockingSubstitution object at 0x7f5b8a2c7410>]",
		style=filled,
		typ=BlockingSubstitution];
	"381:BS" -> "Leaf_341:AL"	 [cond="[]",
		lineno=None];
	"425:AS"	 [ast="<pyverilog.vparser.ast.Assign object at 0x7f5b8aa2d8d0>",
		def_var="['is_compressed_o']",
		fillcolor=deepskyblue,
		label="425:AS
is_compressed_o = instr_i[1:0] != 2'b11;",
		statements="[]",
		style=filled,
		typ=Assign,
		use_var="['instr_i']"];
	"358:BS"	 [ast="<pyverilog.vparser.ast.BlockingSubstitution object at 0x7f5b8a2c87d0>",
		fillcolor=cadetblue,
		label="358:BS
instr_o = { { 6{ instr_i[12] } }, instr_i[12], instr_i[6:2], instr_i[11:7], 3'b0, instr_i[11:7], OPCODE_OP_IMM };",
		statements="[<pyverilog.vparser.ast.BlockingSubstitution object at 0x7f5b8a2c87d0>]",
		style=filled,
		typ=BlockingSubstitution];
	"358:BS" -> "Leaf_341:AL"	 [cond="[]",
		lineno=None];
	"350:BS"	 [ast="<pyverilog.vparser.ast.BlockingSubstitution object at 0x7f5b8aa98a50>",
		fillcolor=cadetblue,
		label="350:BS
illegal_instr_o = 1'b1;",
		statements="[<pyverilog.vparser.ast.BlockingSubstitution object at 0x7f5b8aa98a50>]",
		style=filled,
		typ=BlockingSubstitution];
	"350:BS" -> "Leaf_341:AL"	 [cond="[]",
		lineno=None];
	"377:CS"	 [ast="<pyverilog.vparser.ast.CaseStatement object at 0x7f5b8a2c7750>",
		fillcolor=linen,
		label="377:CS",
		statements="[]",
		style=filled,
		typ=CaseStatement];
	"377:CS" -> "382:CA"	 [cond="['instr_i', 'instr_i']",
		label="{ instr_i[12], instr_i[6:5] }",
		lineno=377];
	"383:CA"	 [ast="<pyverilog.vparser.ast.Case object at 0x7f5b8a2c77d0>",
		fillcolor=lightcyan,
		label="383:CA",
		statements="[]",
		style=filled,
		typ=Case];
	"377:CS" -> "383:CA"	 [cond="['instr_i', 'instr_i']",
		label="{ instr_i[12], instr_i[6:5] }",
		lineno=377];
	"379:CA"	 [ast="<pyverilog.vparser.ast.Case object at 0x7f5b8a2b0150>",
		fillcolor=lightcyan,
		label="379:CA",
		statements="[]",
		style=filled,
		typ=Case];
	"377:CS" -> "379:CA"	 [cond="['instr_i', 'instr_i']",
		label="{ instr_i[12], instr_i[6:5] }",
		lineno=377];
	"378:CA"	 [ast="<pyverilog.vparser.ast.Case object at 0x7f5b8a2b3a10>",
		fillcolor=lightcyan,
		label="378:CA",
		statements="[]",
		style=filled,
		typ=Case];
	"377:CS" -> "378:CA"	 [cond="['instr_i', 'instr_i']",
		label="{ instr_i[12], instr_i[6:5] }",
		lineno=377];
	"380:CA"	 [ast="<pyverilog.vparser.ast.Case object at 0x7f5b8a2b07d0>",
		fillcolor=lightcyan,
		label="380:CA",
		statements="[]",
		style=filled,
		typ=Case];
	"377:CS" -> "380:CA"	 [cond="['instr_i', 'instr_i']",
		label="{ instr_i[12], instr_i[6:5] }",
		lineno=377];
	"381:CA"	 [ast="<pyverilog.vparser.ast.Case object at 0x7f5b8a2b0e10>",
		fillcolor=lightcyan,
		label="381:CA",
		statements="[]",
		style=filled,
		typ=Case];
	"377:CS" -> "381:CA"	 [cond="['instr_i', 'instr_i']",
		label="{ instr_i[12], instr_i[6:5] }",
		lineno=377];
	"366:BS"	 [ast="<pyverilog.vparser.ast.BlockingSubstitution object at 0x7f5b8a2b4050>",
		fillcolor=cadetblue,
		label="366:BS
illegal_instr_o = 1'b1;",
		statements="[<pyverilog.vparser.ast.BlockingSubstitution object at 0x7f5b8a2b4050>]",
		style=filled,
		typ=BlockingSubstitution];
	"366:BS" -> "Leaf_341:AL"	 [cond="[]",
		lineno=None];
	"368:CA" -> "369:CS"	 [cond="[]",
		lineno=None];
	"400:BS" -> "Leaf_341:AL"	 [cond="[]",
		lineno=None];
	"364:BS"	 [ast="<pyverilog.vparser.ast.BlockingSubstitution object at 0x7f5b8a2d5c10>",
		fillcolor=cadetblue,
		label="364:BS
instr_o = { { 3{ instr_i[12] } }, instr_i[4:3], instr_i[5], instr_i[2], instr_i[6], 4'b0, 5'h02, 3'b000, 5'h02, OPCODE_OP_\
IMM };",
		statements="[<pyverilog.vparser.ast.BlockingSubstitution object at 0x7f5b8a2d5c10>]",
		style=filled,
		typ=BlockingSubstitution];
	"364:BS" -> "Leaf_341:AL"	 [cond="[]",
		lineno=None];
	"383:CA" -> "383:BS"	 [cond="[]",
		lineno=None];
	"419:BS" -> "Leaf_341:AL"	 [cond="[]",
		lineno=None];
	"341:BL" -> "344:CS"	 [cond="[]",
		lineno=None];
	"363:IF"	 [ast="<pyverilog.vparser.ast.IfStatement object at 0x7f5b8a2d5390>",
		fillcolor=springgreen,
		label="363:IF",
		statements="[]",
		style=filled,
		typ=IfStatement];
	"363:IF" -> "364:BS"	 [cond="['instr_i']",
		label="(instr_i[11:7] == 5'h02)",
		lineno=363];
	"388:BS" -> "Leaf_341:AL"	 [cond="[]",
		lineno=None];
	"375:BS"	 [ast="<pyverilog.vparser.ast.BlockingSubstitution object at 0x7f5b8a2b3650>",
		fillcolor=cadetblue,
		label="375:BS
instr_o = { { 6{ instr_i[12] } }, instr_i[12], instr_i[6:2], 2'b01, instr_i[9:7], 3'b111, 2'b01, instr_i[9:7], OPCODE_OP_\
IMM };",
		statements="[<pyverilog.vparser.ast.BlockingSubstitution object at 0x7f5b8a2b3650>]",
		style=filled,
		typ=BlockingSubstitution];
	"375:BS" -> "Leaf_341:AL"	 [cond="[]",
		lineno=None];
	"354:CA" -> "354:BS"	 [cond="[]",
		lineno=None];
	"361:BL" -> "363:IF"	 [cond="[]",
		lineno=None];
	"365:IF"	 [ast="<pyverilog.vparser.ast.IfStatement object at 0x7f5b8a2d5e90>",
		fillcolor=springgreen,
		label="365:IF",
		statements="[]",
		style=filled,
		typ=IfStatement];
	"361:BL" -> "365:IF"	 [cond="[]",
		lineno=None];
	"379:BS"	 [ast="<pyverilog.vparser.ast.BlockingSubstitution object at 0x7f5b8a2b0710>",
		fillcolor=cadetblue,
		label="379:BS
instr_o = { 7'b0, 2'b01, instr_i[4:2], 2'b01, instr_i[9:7], 3'b100, 2'b01, instr_i[9:7], OPCODE_OP };",
		statements="[<pyverilog.vparser.ast.BlockingSubstitution object at 0x7f5b8a2b0710>]",
		style=filled,
		typ=BlockingSubstitution];
	"379:CA" -> "379:BS"	 [cond="[]",
		lineno=None];
	"420:CA"	 [ast="<pyverilog.vparser.ast.Case object at 0x7f5b8aa2d4d0>",
		fillcolor=lightcyan,
		label="420:CA",
		statements="[]",
		style=filled,
		typ=Case];
	"420:CA" -> "420:BS"	 [cond="[]",
		lineno=None];
	"376:CA" -> "377:CS"	 [cond="[]",
		lineno=None];
	"365:IF" -> "366:BS"	 [cond="['instr_i', 'instr_i']",
		label="({ instr_i[12], instr_i[6:2] } == 6'b0)",
		lineno=365];
	"375:CA" -> "375:BS"	 [cond="[]",
		lineno=None];
	"352:BS"	 [ast="<pyverilog.vparser.ast.BlockingSubstitution object at 0x7f5b8a2c9250>",
		fillcolor=cadetblue,
		label="352:BS
instr_o = { 5'b0, instr_i[5], instr_i[12:10], instr_i[6], 2'b00, 2'b01, instr_i[9:7], 3'b010, 2'b01, instr_i[4:2], OPCODE_\
LOAD };",
		statements="[<pyverilog.vparser.ast.BlockingSubstitution object at 0x7f5b8a2c9250>]",
		style=filled,
		typ=BlockingSubstitution];
	"352:BS" -> "Leaf_341:AL"	 [cond="[]",
		lineno=None];
	"391:CS"	 [ast="<pyverilog.vparser.ast.CaseStatement object at 0x7f5b8aa2d450>",
		fillcolor=linen,
		label="391:CS",
		statements="[]",
		style=filled,
		typ=CaseStatement];
	"390:CA" -> "391:CS"	 [cond="[]",
		lineno=None];
	"378:BS"	 [ast="<pyverilog.vparser.ast.BlockingSubstitution object at 0x7f5b8a2b0050>",
		fillcolor=cadetblue,
		label="378:BS
instr_o = { 2'b01, 5'b0, 2'b01, instr_i[4:2], 2'b01, instr_i[9:7], 3'b000, 2'b01, instr_i[9:7], OPCODE_OP };",
		statements="[<pyverilog.vparser.ast.BlockingSubstitution object at 0x7f5b8a2b0050>]",
		style=filled,
		typ=BlockingSubstitution];
	"378:CA" -> "378:BS"	 [cond="[]",
		lineno=None];
	"359:BS"	 [ast="<pyverilog.vparser.ast.BlockingSubstitution object at 0x7f5b8a2ab3d0>",
		fillcolor=cadetblue,
		label="359:BS
instr_o = { instr_i[12], instr_i[8], instr_i[10:9], instr_i[6], instr_i[7], instr_i[2], instr_i[11], instr_i[5:3], { 9{ instr_\
i[12] } }, 4'b0, ~instr_i[15], OPCODE_JAL };",
		statements="[<pyverilog.vparser.ast.BlockingSubstitution object at 0x7f5b8a2ab3d0>]",
		style=filled,
		typ=BlockingSubstitution];
	"359:CA" -> "359:BS"	 [cond="[]",
		lineno=None];
	"387:BS"	 [ast="<pyverilog.vparser.ast.BlockingSubstitution object at 0x7f5b8a2db510>",
		fillcolor=cadetblue,
		label="387:BS
instr_o = { { 4{ instr_i[12] } }, instr_i[6:5], instr_i[2], 5'b0, 2'b01, instr_i[9:7], 2'b00, instr_i[13], instr_i[11:10], \
instr_i[4:3], instr_i[12], OPCODE_BRANCH };",
		statements="[<pyverilog.vparser.ast.BlockingSubstitution object at 0x7f5b8a2db510>]",
		style=filled,
		typ=BlockingSubstitution];
	"387:CA" -> "387:BS"	 [cond="[]",
		lineno=None];
	"380:BS"	 [ast="<pyverilog.vparser.ast.BlockingSubstitution object at 0x7f5b8a2b0d50>",
		fillcolor=cadetblue,
		label="380:BS
instr_o = { 7'b0, 2'b01, instr_i[4:2], 2'b01, instr_i[9:7], 3'b110, 2'b01, instr_i[9:7], OPCODE_OP };",
		statements="[<pyverilog.vparser.ast.BlockingSubstitution object at 0x7f5b8a2b0d50>]",
		style=filled,
		typ=BlockingSubstitution];
	"380:BS" -> "Leaf_341:AL"	 [cond="[]",
		lineno=None];
	"360:BS"	 [ast="<pyverilog.vparser.ast.BlockingSubstitution object at 0x7f5b8a2abb50>",
		fillcolor=cadetblue,
		label="360:BS
instr_o = { { 6{ instr_i[12] } }, instr_i[12], instr_i[6:2], 5'b0, 3'b0, instr_i[11:7], OPCODE_OP_IMM };",
		statements="[<pyverilog.vparser.ast.BlockingSubstitution object at 0x7f5b8a2abb50>]",
		style=filled,
		typ=BlockingSubstitution];
	"360:BS" -> "Leaf_341:AL"	 [cond="[]",
		lineno=None];
	"415:BS" -> "Leaf_341:AL"	 [cond="[]",
		lineno=None];
	"379:BS" -> "Leaf_341:AL"	 [cond="[]",
		lineno=None];
	"380:CA" -> "380:BS"	 [cond="[]",
		lineno=None];
	"373:BS" -> "Leaf_341:AL"	 [cond="[]",
		lineno=None];
	"349:IF"	 [ast="<pyverilog.vparser.ast.IfStatement object at 0x7f5b8aa98910>",
		fillcolor=springgreen,
		label="349:IF",
		statements="[]",
		style=filled,
		typ=IfStatement];
	"349:IF" -> "350:BS"	 [cond="['instr_i']",
		label="(instr_i[12:5] == 8'b0)",
		lineno=349];
	"382:BS" -> "Leaf_341:AL"	 [cond="[]",
		lineno=None];
	"387:BS" -> "Leaf_341:AL"	 [cond="[]",
		lineno=None];
	"360:CA" -> "360:BS"	 [cond="[]",
		lineno=None];
	"381:CA" -> "381:BS"	 [cond="[]",
		lineno=None];
	"358:CA" -> "358:BS"	 [cond="[]",
		lineno=None];
	"422:BS" -> "Leaf_341:AL"	 [cond="[]",
		lineno=None];
	"356:CA" -> "357:CS"	 [cond="[]",
		lineno=None];
	"408:IF"	 [ast="<pyverilog.vparser.ast.IfStatement object at 0x7f5b8a2dec50>",
		fillcolor=springgreen,
		label="408:IF",
		statements="[]",
		style=filled,
		typ=IfStatement];
	"406:BL" -> "408:IF"	 [cond="[]",
		lineno=None];
	"417:BS" -> "Leaf_341:AL"	 [cond="[]",
		lineno=None];
	"409:BS"	 [ast="<pyverilog.vparser.ast.BlockingSubstitution object at 0x7f5b8a2ded90>",
		fillcolor=cadetblue,
		label="409:BS
illegal_instr_o = 1'b1;",
		statements="[<pyverilog.vparser.ast.BlockingSubstitution object at 0x7f5b8a2ded90>]",
		style=filled,
		typ=BlockingSubstitution];
	"408:IF" -> "409:BS"	 [cond="['instr_i']",
		label="(instr_i[11:7] == 5'b0)",
		lineno=408];
	"378:BS" -> "Leaf_341:AL"	 [cond="[]",
		lineno=None];
	"395:BS" -> "Leaf_341:AL"	 [cond="[]",
		lineno=None];
	"347:BL"	 [ast="<pyverilog.vparser.ast.Block object at 0x7f5b8aa98710>",
		fillcolor=turquoise,
		label="347:BL
instr_o = { 2'b0, instr_i[10:7], instr_i[12:11], instr_i[5], instr_i[6], 2'b00, 5'h02, 3'b000, 2'b01, instr_i[4:2], OPCODE_\
OP_IMM };",
		statements="[<pyverilog.vparser.ast.BlockingSubstitution object at 0x7f5b8aa986d0>]",
		style=filled,
		typ=Block];
	"347:CA" -> "347:BL"	 [cond="[]",
		lineno=None];
	"392:CA"	 [ast="<pyverilog.vparser.ast.Case object at 0x7f5b8a2db8d0>",
		fillcolor=lightcyan,
		label="392:CA",
		statements="[]",
		style=filled,
		typ=Case];
	"392:BL"	 [ast="<pyverilog.vparser.ast.Block object at 0x7f5b8a2dbf10>",
		fillcolor=turquoise,
		label="392:BL
instr_o = { 7'b0, instr_i[6:2], instr_i[11:7], 3'b001, instr_i[11:7], OPCODE_OP_IMM };",
		statements="[<pyverilog.vparser.ast.BlockingSubstitution object at 0x7f5b8a2dbed0>]",
		style=filled,
		typ=Block];
	"392:CA" -> "392:BL"	 [cond="[]",
		lineno=None];
	"397:BL"	 [ast="<pyverilog.vparser.ast.Block object at 0x7f5b8a2bc9d0>",
		fillcolor=turquoise,
		label="397:BL
instr_o = { 4'b0, instr_i[3:2], instr_i[12], instr_i[6:4], 2'b00, 5'h02, 3'b010, instr_i[11:7], OPCODE_LOAD };",
		statements="[<pyverilog.vparser.ast.BlockingSubstitution object at 0x7f5b8a2bc950>]",
		style=filled,
		typ=Block];
	"397:BL" -> "399:IF"	 [cond="[]",
		lineno=None];
	"409:BS" -> "Leaf_341:AL"	 [cond="[]",
		lineno=None];
	"385:CA" -> "385:BS"	 [cond="[]",
		lineno=None];
	"418:BS" -> "Leaf_341:AL"	 [cond="[]",
		lineno=None];
	"403:BL"	 [ast="<pyverilog.vparser.ast.Block object at 0x7f5b8a2bcf50>",
		fillcolor=turquoise,
		label="403:BL",
		statements="[]",
		style=filled,
		typ=Block];
	"403:BL" -> "404:IF"	 [cond="[]",
		lineno=None];
	"391:CS" -> "418:CA"	 [cond="['instr_i']",
		label="instr_i[15:13]",
		lineno=391];
	"391:CS" -> "419:CA"	 [cond="['instr_i']",
		label="instr_i[15:13]",
		lineno=391];
	"391:CS" -> "402:CA"	 [cond="['instr_i']",
		label="instr_i[15:13]",
		lineno=391];
	"391:CS" -> "420:CA"	 [cond="['instr_i']",
		label="instr_i[15:13]",
		lineno=391];
	"391:CS" -> "392:CA"	 [cond="['instr_i']",
		label="instr_i[15:13]",
		lineno=391];
	"397:CA"	 [ast="<pyverilog.vparser.ast.Case object at 0x7f5b8a2bc210>",
		fillcolor=lightcyan,
		label="397:CA",
		statements="[]",
		style=filled,
		typ=Case];
	"391:CS" -> "397:CA"	 [cond="['instr_i']",
		label="instr_i[15:13]",
		lineno=391];
	"352:CA" -> "352:BS"	 [cond="[]",
		lineno=None];
	"403:IF" -> "403:BL"	 [cond="['instr_i']",
		label="(instr_i[12] == 1'b0)",
		lineno=403];
	"412:IF"	 [ast="<pyverilog.vparser.ast.IfStatement object at 0x7f5b8aa28390>",
		fillcolor=springgreen,
		label="412:IF",
		statements="[]",
		style=filled,
		typ=IfStatement];
	"403:IF" -> "412:IF"	 [cond="['instr_i']",
		label="!((instr_i[12] == 1'b0))",
		lineno=403];
	"412:IF" -> "414:IF"	 [cond="['instr_i']",
		label="!((instr_i[6:2] != 5'b0))",
		lineno=412];
	"412:IF" -> "413:BS"	 [cond="['instr_i']",
		label="(instr_i[6:2] != 5'b0)",
		lineno=412];
	"392:BL" -> "394:IF"	 [cond="[]",
		lineno=None];
	"359:BS" -> "Leaf_341:AL"	 [cond="[]",
		lineno=None];
	"397:CA" -> "397:BL"	 [cond="[]",
		lineno=None];
	"347:BL" -> "349:IF"	 [cond="[]",
		lineno=None];
}
