strict digraph "" {
	node [label="\N"];
	"37:AS"	 [ast="<pyverilog.vparser.ast.Assign object at 0x7fe4a9c06390>",
		def_var="['Wport']",
		fillcolor=deepskyblue,
		label="37:AS
Wport = 0;",
		statements="[]",
		style=filled,
		typ=Assign,
		use_var="[]"];
}
