strict digraph "" {
	node [label="\N"];
	"43:AS"	 [ast="<pyverilog.vparser.ast.Assign object at 0x7fe4a9c066d0>",
		def_var="['Rxy']",
		fillcolor=deepskyblue,
		label="43:AS
Rxy = 'd60;",
		statements="[]",
		style=filled,
		typ=Assign,
		use_var="[]"];
}
