strict digraph "" {
	node [label="\N"];
	"44:AS"	 [ast="<pyverilog.vparser.ast.Assign object at 0x7fe4a9c066d0>",
		def_var="['Cx']",
		fillcolor=deepskyblue,
		label="44:AS
Cx = 'd15;",
		statements="[]",
		style=filled,
		typ=Assign,
		use_var="[]"];
}
