strict digraph "" {
	node [label="\N"];
	"45:AS"	 [ast="<pyverilog.vparser.ast.Assign object at 0x7fe4a9c066d0>",
		def_var="['cur_addr']",
		fillcolor=deepskyblue,
		label="45:AS
cur_addr = 'd5;",
		statements="[]",
		style=filled,
		typ=Assign,
		use_var="[]"];
}
