strict digraph "" {
	node [label="\N"];
	"50:AS"	 [ast="<pyverilog.vparser.ast.Assign object at 0x7fe4a9c06850>",
		def_var="['Ren']",
		fillcolor=deepskyblue,
		label="50:AS
Ren = Rxy[2];",
		statements="[]",
		style=filled,
		typ=Assign,
		use_var="['Rxy']"];
}
