strict digraph "" {
	flit_id	 [complexity=1,
		importance=0.0853604984153,
		rank=0.0853604984153];
	Sport	 [complexity=0,
		importance=0.066676855725,
		rank=0.0];
	flit_id -> Sport;
	rst	 [complexity=3,
		importance=0.15203735414,
		rank=0.0506791180467];
	rst -> Sport;
	empty	 [complexity=2,
		importance=0.0853604984153,
		rank=0.0426802492076];
	empty -> Sport;
}
