strict digraph "" {
	"[1]csr_mstatus_tw_i"	 [complexity=36,
		importance=0.441575492988,
		rank=0.0122659859163];
	"[1]illegal_umode"	 [complexity=30,
		importance=0.436577876821,
		rank=0.014552595894];
	"[1]csr_mstatus_tw_i" -> "[1]illegal_umode";
	"[1]stall"	 [complexity=12,
		importance=0.398544886344,
		rank=0.033212073862];
	"[1]halt_if"	 [complexity=7,
		importance=0.127850889108,
		rank=0.0182644127297];
	"[1]stall" -> "[1]halt_if";
	"[1]id_in_ready_o"	 [complexity=4,
		importance=0.114326597419,
		rank=0.0285816493547];
	"[1]stall" -> "[1]id_in_ready_o";
	"[1]ctrl_fsm_ns"	 [complexity=3,
		importance=0.105010195927,
		rank=0.0350033986422];
	"[1]stall" -> "[1]ctrl_fsm_ns";
	debug_csr_save_o	 [complexity=0,
		importance=0.00665049124133,
		rank=0.0];
	"[1]DBG_TAKEN_IF"	 [complexity=9,
		importance=0.320028203946,
		rank=0.0355586893274];
	"[1]DBG_TAKEN_IF" -> "[1]ctrl_fsm_ns";
	"[1]PRIV_LVL_U"	 [complexity=12,
		importance=0.124167147543,
		rank=0.0103472622952];
	"[1]ebreak_into_debug"	 [complexity=5,
		importance=0.119169531376,
		rank=0.0238339062752];
	"[1]PRIV_LVL_U" -> "[1]ebreak_into_debug";
	"[1]ebreak_into_debug" -> "[1]ctrl_fsm_ns";
	"[1]debug_mode_d"	 [complexity=4,
		importance=0.0225443584875,
		rank=0.00563608962188];
	debug_mode_q	 [complexity=2,
		importance=0.0155182837101,
		rank=0.00775914185504];
	"[1]debug_mode_d" -> debug_mode_q;
	"[1]dret_insn_i"	 [complexity=36,
		importance=0.444521987805,
		rank=0.0123478329946];
	"[1]dret_insn"	 [complexity=33,
		importance=0.439524371638,
		rank=0.0133189203527];
	"[1]dret_insn_i" -> "[1]dret_insn";
	"[1]stall_multdiv_i"	 [complexity=17,
		importance=0.403542502511,
		rank=0.0237377942653];
	"[1]stall_multdiv_i" -> "[1]stall";
	"[1]illegal_insn_i"	 [complexity=30,
		importance=0.43113627913,
		rank=0.0143712093043];
	"[1]illegal_insn_d"	 [complexity=24,
		importance=0.426138662963,
		rank=0.0177557776235];
	"[1]illegal_insn_i" -> "[1]illegal_insn_d";
	"[1]PRIV_LVL_M"	 [complexity=12,
		importance=0.124167147543,
		rank=0.0103472622952];
	"[1]PRIV_LVL_M" -> "[1]ebreak_into_debug";
	"[1]PRIV_LVL_M" -> "[1]illegal_umode";
	"[1]exc_req_d"	 [complexity=17,
		importance=0.409647332993,
		rank=0.0240969019408];
	"[1]illegal_insn_d" -> "[1]exc_req_d";
	"[1]debug_single_step_i"	 [complexity=17,
		importance=0.522039292309,
		rank=0.0307081936652];
	"[1]debug_single_step_i" -> "[1]debug_mode_d";
	"[1]debug_single_step_i" -> "[1]ctrl_fsm_ns";
	"[1]enter_debug_mode"	 [complexity=12,
		importance=0.517041676143,
		rank=0.0430868063452];
	"[1]debug_single_step_i" -> "[1]enter_debug_mode";
	"[1]handle_irq"	 [complexity=12,
		importance=0.392914531466,
		rank=0.0327428776222];
	"[1]handle_irq" -> "[1]halt_if";
	"[1]handle_irq" -> "[1]ctrl_fsm_ns";
	debug_single_step_i	 [complexity=2,
		importance=0.0182985986493,
		rank=0.00914929932466];
	debug_single_step_i -> debug_csr_save_o;
	"[1]illegal_insn_q"	 [complexity=4,
		importance=0.114487698642,
		rank=0.0286219246605];
	"[1]illegal_insn_q" -> "[1]ctrl_fsm_ns";
	"[1]ctrl_fsm_cs"	 [complexity=30,
		importance=0.459731285871,
		rank=0.0153243761957];
	"[1]ctrl_fsm_cs" -> "[1]debug_mode_d";
	"[1]ctrl_fsm_cs" -> "[1]illegal_insn_d";
	"[1]ctrl_fsm_cs" -> "[1]halt_if";
	"[1]ctrl_fsm_cs" -> "[1]ctrl_fsm_ns";
	"[1]ctrl_fsm_cs" -> "[1]exc_req_d";
	"[1]instr_valid_i"	 [complexity=27,
		importance=0.422307792754,
		rank=0.0156410293613];
	"[1]instr_fetch_err"	 [complexity=24,
		importance=0.417310176588,
		rank=0.0173879240245];
	"[1]instr_valid_i" -> "[1]instr_fetch_err";
	"[1]instr_valid_i" -> "[1]halt_if";
	"[1]ebrk_insn"	 [complexity=24,
		importance=0.417310176588,
		rank=0.0173879240245];
	"[1]instr_valid_i" -> "[1]ebrk_insn";
	"[1]wfi_insn"	 [complexity=36,
		importance=0.444240720416,
		rank=0.0123400200115];
	"[1]instr_valid_i" -> "[1]wfi_insn";
	"[1]instr_valid_i" -> "[1]ctrl_fsm_ns";
	"[1]instr_valid_i" -> "[1]dret_insn";
	"[1]ecall_insn"	 [complexity=24,
		importance=0.417310176588,
		rank=0.0173879240245];
	"[1]instr_valid_i" -> "[1]ecall_insn";
	"[1]instr_valid_i" -> "[1]enter_debug_mode";
	"[1]csr_pipe_flush"	 [complexity=17,
		importance=0.406368558353,
		rank=0.0239040328443];
	"[1]instr_valid_i" -> "[1]csr_pipe_flush";
	"[1]mret_insn"	 [complexity=36,
		importance=0.444240720416,
		rank=0.0123400200115];
	"[1]instr_valid_i" -> "[1]mret_insn";
	"[1]csr_mstatus_mie_i"	 [complexity=18,
		importance=0.397912147633,
		rank=0.022106230424];
	"[1]csr_mstatus_mie_i" -> "[1]handle_irq";
	"[1]instr_fetch_err" -> "[1]ctrl_fsm_ns";
	"[1]instr_fetch_err" -> "[1]exc_req_d";
	PRIV_LVL_U	 [complexity=9,
		importance=0.0258074428574,
		rank=0.00286749365082];
	ebreak_into_debug	 [complexity=2,
		importance=0.0208098266908,
		rank=0.0104049133454];
	PRIV_LVL_U -> ebreak_into_debug;
	"[1]debug_mode_q"	 [complexity=33,
		importance=0.440729320512,
		rank=0.0133554339549];
	"[1]debug_mode_q" -> "[1]debug_mode_d";
	"[1]debug_mode_q" -> "[1]handle_irq";
	"[1]illegal_dret"	 [complexity=30,
		importance=0.431861528044,
		rank=0.0143953842681];
	"[1]debug_mode_q" -> "[1]illegal_dret";
	"[1]debug_mode_q" -> "[1]ctrl_fsm_ns";
	"[1]debug_mode_q" -> "[1]enter_debug_mode";
	"[1]irq_pending_i"	 [complexity=18,
		importance=0.397912147633,
		rank=0.022106230424];
	"[1]irq_pending_i" -> "[1]handle_irq";
	"[1]irq_pending_i" -> "[1]ctrl_fsm_ns";
	"[1]halt_if" -> "[1]id_in_ready_o";
	"[1]stall_jump_i"	 [complexity=17,
		importance=0.403542502511,
		rank=0.0237377942653];
	"[1]stall_jump_i" -> "[1]stall";
	"[1]id_in_ready_o" -> "[1]ctrl_fsm_ns";
	"[1]priv_mode_i"	 [complexity=12,
		importance=0.124167147543,
		rank=0.0103472622952];
	"[1]priv_mode_i" -> "[1]ebreak_into_debug";
	"[1]priv_mode_i" -> "[1]illegal_umode";
	"[1]special_req"	 [complexity=10,
		importance=0.398705714759,
		rank=0.0398705714759];
	"[1]special_req" -> "[1]halt_if";
	"[1]special_req" -> "[1]ctrl_fsm_ns";
	"[1]instr_fetch_err_i"	 [complexity=27,
		importance=0.422307792754,
		rank=0.0156410293613];
	"[1]instr_fetch_err_i" -> "[1]instr_fetch_err";
	"[1]FIRST_FETCH"	 [complexity=7,
		importance=0.21501800802,
		rank=0.0307168582885];
	"[1]FIRST_FETCH" -> "[1]ctrl_fsm_ns";
	"[1]exc_req_q"	 [complexity=6,
		importance=0.323120459331,
		rank=0.0538534098885];
	"[1]exc_req_q" -> "[1]debug_mode_d";
	"[1]exc_req_q" -> "[1]ctrl_fsm_ns";
	"[1]debug_req_i"	 [complexity=17,
		importance=0.522039292309,
		rank=0.0307081936652];
	"[1]debug_req_i" -> "[1]debug_mode_d";
	"[1]debug_req_i" -> "[1]ctrl_fsm_ns";
	"[1]debug_req_i" -> "[1]enter_debug_mode";
	"[1]store_err_q"	 [complexity=6,
		importance=0.323508596384,
		rank=0.0539180993973];
	"[1]store_err_q" -> "[1]debug_mode_d";
	"[1]store_err_q" -> "[1]ctrl_fsm_ns";
	"[1]debug_ebreakm_i"	 [complexity=12,
		importance=0.124167147543,
		rank=0.0103472622952];
	"[1]debug_ebreakm_i" -> "[1]ebreak_into_debug";
	"[1]store_err_i"	 [complexity=20,
		importance=0.411199597805,
		rank=0.0205599798903];
	"[1]exc_req_lsu"	 [complexity=17,
		importance=0.406201981639,
		rank=0.023894234214];
	"[1]store_err_i" -> "[1]exc_req_lsu";
	"[1]BOOT_SET"	 [complexity=5,
		importance=0.110007812093,
		rank=0.0220015624186];
	"[1]BOOT_SET" -> "[1]ctrl_fsm_ns";
	debug_ebreaku_i	 [complexity=9,
		importance=0.0258074428574,
		rank=0.00286749365082];
	debug_ebreaku_i -> ebreak_into_debug;
	"[1]rst_ni"	 [complexity=2,
		importance=0.11208580943,
		rank=0.0560429047149];
	"[1]rst_ni" -> debug_mode_q;
	ctrl_fsm_cs	 [complexity=1,
		importance=0.0535440966316,
		rank=0.0535440966316];
	"[1]rst_ni" -> ctrl_fsm_cs;
	PRIV_LVL_M	 [complexity=9,
		importance=0.0258074428574,
		rank=0.00286749365082];
	PRIV_LVL_M -> ebreak_into_debug;
	"[1]debug_ebreaku_i"	 [complexity=12,
		importance=0.124167147543,
		rank=0.0103472622952];
	"[1]debug_ebreaku_i" -> "[1]ebreak_into_debug";
	"[1]ebrk_insn" -> "[1]ctrl_fsm_ns";
	"[1]ebrk_insn" -> "[1]exc_req_d";
	debug_req_i	 [complexity=2,
		importance=0.0182985986493,
		rank=0.00914929932466];
	debug_req_i -> debug_csr_save_o;
	"[1]ebrk_insn_i"	 [complexity=27,
		importance=0.422307792754,
		rank=0.0156410293613];
	"[1]ebrk_insn_i" -> "[1]ebrk_insn";
	debug_mode_q -> debug_csr_save_o;
	"[1]DECODE"	 [complexity=13,
		importance=1.05509957543,
		rank=0.0811615058025];
	"[1]DECODE" -> "[1]ctrl_fsm_ns";
	"[1]illegal_dret" -> "[1]illegal_insn_d";
	"[1]DBG_TAKEN_ID"	 [complexity=5,
		importance=0.110007812093,
		rank=0.0220015624186];
	"[1]DBG_TAKEN_ID" -> "[1]ctrl_fsm_ns";
	"[1]fetch_enable_i"	 [complexity=4,
		importance=0.110007812093,
		rank=0.0275019530233];
	"[1]fetch_enable_i" -> "[1]ctrl_fsm_ns";
	"[1]wfi_insn" -> "[1]special_req";
	"[1]wfi_insn" -> "[1]ctrl_fsm_ns";
	"[1]wfi_insn" -> "[1]illegal_umode";
	"[1]mret_insn_i"	 [complexity=39,
		importance=0.449238336582,
		rank=0.0115189317072];
	"[1]mret_insn_i" -> "[1]mret_insn";
	ctrl_fsm_cs -> debug_csr_save_o;
	"[1]ctrl_fsm_ns" -> ctrl_fsm_cs;
	"[1]stall_lsu_i"	 [complexity=17,
		importance=0.403542502511,
		rank=0.0237377942653];
	"[1]stall_lsu_i" -> "[1]stall";
	"[1]exc_req_d" -> "[1]special_req";
	"[1]irq_nm_i"	 [complexity=18,
		importance=0.397912147633,
		rank=0.022106230424];
	"[1]irq_nm_i" -> "[1]handle_irq";
	"[1]irq_nm_i" -> "[1]ctrl_fsm_ns";
	"[1]stall_branch_i"	 [complexity=17,
		importance=0.403542502511,
		rank=0.0237377942653];
	"[1]stall_branch_i" -> "[1]stall";
	"[1]RESET"	 [complexity=3,
		importance=0.0585417127982,
		rank=0.0195139042661];
	"[1]RESET" -> ctrl_fsm_cs;
	"[1]csr_pipe_flush_i"	 [complexity=20,
		importance=0.41136617452,
		rank=0.020568308726];
	"[1]csr_pipe_flush_i" -> "[1]csr_pipe_flush";
	"[1]wfi_insn_i"	 [complexity=39,
		importance=0.449238336582,
		rank=0.0115189317072];
	"[1]wfi_insn_i" -> "[1]wfi_insn";
	"[1]FLUSH"	 [complexity=30,
		importance=0.43113627913,
		rank=0.0143712093043];
	"[1]FLUSH" -> "[1]illegal_insn_d";
	"[1]FLUSH" -> "[1]ctrl_fsm_ns";
	"[1]FLUSH" -> "[1]exc_req_d";
	ebreak_into_debug -> debug_csr_save_o;
	"[1]illegal_umode" -> "[1]illegal_insn_d";
	"[1]dret_insn" -> "[1]debug_mode_d";
	"[1]dret_insn" -> "[1]special_req";
	"[1]dret_insn" -> "[1]illegal_dret";
	"[1]dret_insn" -> "[1]ctrl_fsm_ns";
	"[1]ecall_insn" -> "[1]ctrl_fsm_ns";
	"[1]ecall_insn" -> "[1]exc_req_d";
	priv_mode_i	 [complexity=9,
		importance=0.0258074428574,
		rank=0.00286749365082];
	priv_mode_i -> ebreak_into_debug;
	"[1]SLEEP"	 [complexity=5,
		importance=0.110007812093,
		rank=0.0220015624186];
	"[1]SLEEP" -> "[1]ctrl_fsm_ns";
	"[1]load_err_q"	 [complexity=6,
		importance=0.323508596384,
		rank=0.0539180993973];
	"[1]load_err_q" -> "[1]debug_mode_d";
	"[1]load_err_q" -> "[1]ctrl_fsm_ns";
	"[1]enter_debug_mode" -> "[1]halt_if";
	"[1]enter_debug_mode" -> "[1]ctrl_fsm_ns";
	"[1]IRQ_TAKEN"	 [complexity=9,
		importance=0.320028203946,
		rank=0.0355586893274];
	"[1]IRQ_TAKEN" -> "[1]ctrl_fsm_ns";
	debug_ebreakm_i	 [complexity=9,
		importance=0.0258074428574,
		rank=0.00286749365082];
	debug_ebreakm_i -> ebreak_into_debug;
	"[1]load_err_i"	 [complexity=20,
		importance=0.411199597805,
		rank=0.0205599798903];
	"[1]load_err_i" -> "[1]exc_req_lsu";
	"[1]nmi_mode_q"	 [complexity=18,
		importance=0.402072706358,
		rank=0.0223373725754];
	"[1]nmi_mode_q" -> "[1]handle_irq";
	"[1]exc_req_lsu" -> "[1]special_req";
	"[1]csr_pipe_flush" -> "[1]special_req";
	"[1]csr_pipe_flush" -> "[1]ctrl_fsm_ns";
	"[1]mret_insn" -> "[1]debug_mode_d";
	"[1]mret_insn" -> "[1]special_req";
	"[1]mret_insn" -> "[1]ctrl_fsm_ns";
	"[1]mret_insn" -> "[1]illegal_umode";
	"[1]ecall_insn_i"	 [complexity=27,
		importance=0.422307792754,
		rank=0.0156410293613];
	"[1]ecall_insn_i" -> "[1]ecall_insn";
	"[1]WAIT_SLEEP"	 [complexity=5,
		importance=0.110007812093,
		rank=0.0220015624186];
	"[1]WAIT_SLEEP" -> "[1]ctrl_fsm_ns";
}
