strict digraph "" {
	"[1]special_req"	 [complexity=30,
		importance=0.541546655883,
		rank=0.0180515551961];
	"[1]ctrl_fsm_ns"	 [complexity=23,
		importance=0.152623842968,
		rank=0.00663581925947];
	"[1]special_req" -> "[1]ctrl_fsm_ns";
	"[1]halt_if"	 [complexity=27,
		importance=0.175464536149,
		rank=0.00649868652405];
	"[1]special_req" -> "[1]halt_if";
	"[1]debug_mode_d"	 [complexity=26,
		importance=0.0891818530918,
		rank=0.00343007127276];
	debug_mode_q	 [complexity=24,
		importance=0.0821557783144,
		rank=0.00342315742977];
	"[1]debug_mode_d" -> debug_mode_q;
	"[1]dret_insn_i"	 [complexity=24,
		importance=0.27871827073,
		rank=0.0116132612804];
	"[1]dret_insn"	 [complexity=21,
		importance=0.273720654563,
		rank=0.013034316884];
	"[1]dret_insn_i" -> "[1]dret_insn";
	PC_ERET	 [complexity=2,
		importance=0.0299767412924,
		rank=0.0149883706462];
	pc_mux_o	 [complexity=0,
		importance=0.0249791251258,
		rank=0.0];
	PC_ERET -> pc_mux_o;
	"[1]ctrl_fsm_cs"	 [complexity=18,
		importance=0.293927568796,
		rank=0.0163293093776];
	"[1]ctrl_fsm_cs" -> "[1]debug_mode_d";
	"[1]illegal_insn_d"	 [complexity=12,
		importance=0.260334945888,
		rank=0.021694578824];
	"[1]ctrl_fsm_cs" -> "[1]illegal_insn_d";
	"[1]nmi_mode_d"	 [complexity=9,
		importance=0.151023056795,
		rank=0.0167803396439];
	"[1]ctrl_fsm_cs" -> "[1]nmi_mode_d";
	"[1]ctrl_fsm_cs" -> "[1]ctrl_fsm_ns";
	"[1]exc_req_d"	 [complexity=5,
		importance=0.243843615918,
		rank=0.0487687231837];
	"[1]ctrl_fsm_cs" -> "[1]exc_req_d";
	"[1]ctrl_fsm_cs" -> "[1]halt_if";
	exc_req_lsu	 [complexity=8,
		importance=0.0476284394408,
		rank=0.0059535549301];
	special_req	 [complexity=1,
		importance=0.0401321725607,
		rank=0.0401321725607];
	exc_req_lsu -> special_req;
	"[1]instr_valid_i"	 [complexity=15,
		importance=0.256504075679,
		rank=0.017100271712];
	"[1]wfi_insn"	 [complexity=24,
		importance=0.278437003341,
		rank=0.0116015418059];
	"[1]instr_valid_i" -> "[1]wfi_insn";
	"[1]instr_fetch_err"	 [complexity=12,
		importance=0.251506459513,
		rank=0.0209588716261];
	"[1]instr_valid_i" -> "[1]instr_fetch_err";
	"[1]instr_valid_i" -> "[1]dret_insn";
	"[1]ecall_insn"	 [complexity=12,
		importance=0.251506459513,
		rank=0.0209588716261];
	"[1]instr_valid_i" -> "[1]ecall_insn";
	"[1]enter_debug_mode"	 [complexity=32,
		importance=0.707496264308,
		rank=0.0221092582596];
	"[1]instr_valid_i" -> "[1]enter_debug_mode";
	"[1]mret_insn"	 [complexity=24,
		importance=0.278437003341,
		rank=0.0116015418059];
	"[1]instr_valid_i" -> "[1]mret_insn";
	"[1]instr_valid_i" -> "[1]ctrl_fsm_ns";
	"[1]csr_pipe_flush"	 [complexity=37,
		importance=0.549209499477,
		rank=0.0148434999859];
	"[1]instr_valid_i" -> "[1]csr_pipe_flush";
	"[1]ebrk_insn"	 [complexity=12,
		importance=0.251506459513,
		rank=0.0209588716261];
	"[1]instr_valid_i" -> "[1]ebrk_insn";
	"[1]instr_valid_i" -> "[1]halt_if";
	"[1]RESET"	 [complexity=23,
		importance=0.10615535984,
		rank=0.00461545042781];
	ctrl_fsm_cs	 [complexity=21,
		importance=0.101157743673,
		rank=0.004817035413];
	"[1]RESET" -> ctrl_fsm_cs;
	"[1]debug_mode_q"	 [complexity=21,
		importance=0.274925603437,
		rank=0.0130916954018];
	"[1]debug_mode_q" -> "[1]debug_mode_d";
	"[1]debug_mode_q" -> "[1]enter_debug_mode";
	"[1]handle_irq"	 [complexity=32,
		importance=0.53575547259,
		rank=0.0167423585184];
	"[1]debug_mode_q" -> "[1]handle_irq";
	"[1]debug_mode_q" -> "[1]ctrl_fsm_ns";
	"[1]illegal_dret"	 [complexity=18,
		importance=0.266057810969,
		rank=0.0147809894983];
	"[1]debug_mode_q" -> "[1]illegal_dret";
	"[1]stall_jump_i"	 [complexity=37,
		importance=0.546383443635,
		rank=0.0147671200982];
	"[1]stall"	 [complexity=32,
		importance=0.541385827468,
		rank=0.0169183071084];
	"[1]stall_jump_i" -> "[1]stall";
	instr_fetch_err	 [complexity=15,
		importance=0.0587366343898,
		rank=0.00391577562598];
	exc_req_d	 [complexity=8,
		importance=0.0510737907954,
		rank=0.00638422384942];
	instr_fetch_err -> exc_req_d;
	"[1]SLEEP"	 [complexity=25,
		importance=0.157621459135,
		rank=0.00630485836538];
	"[1]SLEEP" -> "[1]ctrl_fsm_ns";
	"[1]FIRST_FETCH"	 [complexity=27,
		importance=0.310245302102,
		rank=0.0114905667445];
	"[1]FIRST_FETCH" -> "[1]ctrl_fsm_ns";
	"[1]exc_req_q"	 [complexity=26,
		importance=0.465961400455,
		rank=0.0179215923252];
	"[1]exc_req_q" -> "[1]debug_mode_d";
	"[1]exc_req_q" -> "[1]nmi_mode_d";
	"[1]exc_req_q" -> "[1]ctrl_fsm_ns";
	"[1]debug_req_i"	 [complexity=37,
		importance=0.712493880475,
		rank=0.0192565913642];
	"[1]debug_req_i" -> "[1]debug_mode_d";
	"[1]debug_req_i" -> "[1]enter_debug_mode";
	"[1]debug_req_i" -> "[1]ctrl_fsm_ns";
	"[1]wfi_insn" -> "[1]special_req";
	"[1]wfi_insn" -> "[1]ctrl_fsm_ns";
	"[1]illegal_umode"	 [complexity=18,
		importance=0.270774159747,
		rank=0.0150430088748];
	"[1]wfi_insn" -> "[1]illegal_umode";
	"[1]rst_ni"	 [complexity=4,
		importance=0.470801611534,
		rank=0.117700402884];
	"[1]rst_ni" -> debug_mode_q;
	nmi_mode_q	 [complexity=7,
		importance=0.143415664663,
		rank=0.0204879520947];
	"[1]rst_ni" -> nmi_mode_q;
	store_err_q	 [complexity=3,
		importance=0.233290134736,
		rank=0.0777633782454];
	"[1]rst_ni" -> store_err_q;
	exc_req_q	 [complexity=3,
		importance=0.232901997684,
		rank=0.0776339992279];
	"[1]rst_ni" -> exc_req_q;
	"[1]rst_ni" -> ctrl_fsm_cs;
	load_err_q	 [complexity=3,
		importance=0.233290134736,
		rank=0.0777633782454];
	"[1]rst_ni" -> load_err_q;
	"[1]ebrk_insn_i"	 [complexity=15,
		importance=0.256504075679,
		rank=0.017100271712];
	"[1]ebrk_insn_i" -> "[1]ebrk_insn";
	illegal_dret	 [complexity=21,
		importance=0.0732879858456,
		rank=0.00348990408789];
	debug_mode_q -> illegal_dret;
	handle_irq	 [complexity=1,
		importance=0.134257489771,
		rank=0.134257489771];
	debug_mode_q -> handle_irq;
	PC_EXC	 [complexity=8,
		importance=0.229809742299,
		rank=0.0287262177873];
	PC_EXC -> pc_mux_o;
	nmi_mode_q -> handle_irq;
	"[1]instr_fetch_err" -> "[1]ctrl_fsm_ns";
	"[1]instr_fetch_err" -> "[1]exc_req_d";
	csr_mstatus_tw_i	 [complexity=27,
		importance=0.0830019507902,
		rank=0.00307414632556];
	illegal_umode	 [complexity=21,
		importance=0.0780043346235,
		rank=0.00371449212493];
	csr_mstatus_tw_i -> illegal_umode;
	jump_set_i	 [complexity=2,
		importance=0.0299767412924,
		rank=0.0149883706462];
	jump_set_i -> pc_mux_o;
	"[1]csr_mstatus_tw_i"	 [complexity=24,
		importance=0.275771775913,
		rank=0.011490490663];
	"[1]csr_mstatus_tw_i" -> "[1]illegal_umode";
	"[1]dret_insn" -> "[1]special_req";
	"[1]dret_insn" -> "[1]debug_mode_d";
	"[1]dret_insn" -> "[1]ctrl_fsm_ns";
	"[1]dret_insn" -> "[1]illegal_dret";
	"[1]ecall_insn" -> "[1]ctrl_fsm_ns";
	"[1]ecall_insn" -> "[1]exc_req_d";
	wfi_insn	 [complexity=27,
		importance=0.0856671782179,
		rank=0.00317285845251];
	wfi_insn -> special_req;
	wfi_insn -> illegal_umode;
	csr_pipe_flush_i	 [complexity=11,
		importance=0.0527926323217,
		rank=0.00479933021106];
	csr_pipe_flush	 [complexity=8,
		importance=0.047795016155,
		rank=0.00597437701938];
	csr_pipe_flush_i -> csr_pipe_flush;
	"[1]enter_debug_mode" -> "[1]ctrl_fsm_ns";
	"[1]enter_debug_mode" -> "[1]halt_if";
	"[1]WAIT_SLEEP"	 [complexity=25,
		importance=0.157621459135,
		rank=0.00630485836538];
	"[1]WAIT_SLEEP" -> "[1]ctrl_fsm_ns";
	"[1]illegal_insn_d" -> "[1]exc_req_d";
	"[1]csr_pipe_flush_i"	 [complexity=40,
		importance=0.554207115644,
		rank=0.0138551778911];
	"[1]csr_pipe_flush_i" -> "[1]csr_pipe_flush";
	mret_insn_i	 [complexity=30,
		importance=0.0906647943845,
		rank=0.00302215981282];
	mret_insn	 [complexity=27,
		importance=0.0856671782179,
		rank=0.00317285845251];
	mret_insn_i -> mret_insn;
	PC_DRET	 [complexity=2,
		importance=0.0299767412924,
		rank=0.0149883706462];
	PC_DRET -> pc_mux_o;
	dret_insn_i	 [complexity=27,
		importance=0.0859484456067,
		rank=0.00318327576321];
	dret_insn	 [complexity=24,
		importance=0.08095082944,
		rank=0.00337295122667];
	dret_insn_i -> dret_insn;
	"[1]illegal_insn_i"	 [complexity=18,
		importance=0.265332562055,
		rank=0.0147406978919];
	"[1]illegal_insn_i" -> "[1]illegal_insn_d";
	"[1]mret_insn" -> "[1]special_req";
	"[1]mret_insn" -> "[1]debug_mode_d";
	"[1]mret_insn" -> "[1]nmi_mode_d";
	"[1]mret_insn" -> "[1]ctrl_fsm_ns";
	"[1]mret_insn" -> "[1]illegal_umode";
	"[1]illegal_insn_q"	 [complexity=24,
		importance=0.162101345683,
		rank=0.00675422273681];
	"[1]illegal_insn_q" -> "[1]ctrl_fsm_ns";
	PC_JUMP	 [complexity=2,
		importance=0.0299767412924,
		rank=0.0149883706462];
	PC_JUMP -> pc_mux_o;
	irq_nm_i	 [complexity=7,
		importance=0.139255105938,
		rank=0.0198935865626];
	irq_nm_i -> handle_irq;
	"[1]priv_mode_i"	 [complexity=24,
		importance=0.275771775913,
		rank=0.011490490663];
	"[1]ebreak_into_debug"	 [complexity=25,
		importance=0.166783178417,
		rank=0.00667132713669];
	"[1]priv_mode_i" -> "[1]ebreak_into_debug";
	"[1]priv_mode_i" -> "[1]illegal_umode";
	branch_set_i	 [complexity=2,
		importance=0.0299767412924,
		rank=0.0149883706462];
	branch_set_i -> pc_mux_o;
	"[1]store_err_q"	 [complexity=26,
		importance=0.466349537508,
		rank=0.0179365206734];
	"[1]store_err_q" -> "[1]debug_mode_d";
	"[1]store_err_q" -> "[1]nmi_mode_d";
	"[1]store_err_q" -> "[1]ctrl_fsm_ns";
	"[1]store_err_i"	 [complexity=40,
		importance=0.554040538929,
		rank=0.0138510134732];
	"[1]store_err_d"	 [complexity=5,
		importance=0.23953707626,
		rank=0.0479074152519];
	"[1]store_err_i" -> "[1]store_err_d";
	"[1]exc_req_lsu"	 [complexity=37,
		importance=0.549042922763,
		rank=0.0148389979125];
	"[1]store_err_i" -> "[1]exc_req_lsu";
	dret_insn -> special_req;
	dret_insn -> pc_mux_o;
	dret_insn -> illegal_dret;
	PRIV_LVL_M	 [complexity=27,
		importance=0.0830019507902,
		rank=0.00307414632556];
	PRIV_LVL_M -> illegal_umode;
	"[1]store_err_d" -> store_err_q;
	PC_BOOT	 [complexity=6,
		importance=0.079934991544,
		rank=0.0133224985907];
	PC_BOOT -> pc_mux_o;
	"[1]fetch_enable_i"	 [complexity=24,
		importance=0.157621459135,
		rank=0.00656756079727];
	"[1]fetch_enable_i" -> "[1]ctrl_fsm_ns";
	instr_valid_i	 [complexity=27,
		importance=0.0859484456067,
		rank=0.00318327576321];
	instr_valid_i -> instr_fetch_err;
	instr_valid_i -> wfi_insn;
	instr_valid_i -> dret_insn;
	ecall_insn	 [complexity=15,
		importance=0.0587366343898,
		rank=0.00391577562598];
	instr_valid_i -> ecall_insn;
	ebrk_insn	 [complexity=15,
		importance=0.0587366343898,
		rank=0.00391577562598];
	instr_valid_i -> ebrk_insn;
	instr_valid_i -> pc_mux_o;
	instr_valid_i -> csr_pipe_flush;
	instr_valid_i -> mret_insn;
	special_req -> pc_mux_o;
	"[1]irq_nm_i"	 [complexity=38,
		importance=0.540753088757,
		rank=0.014230344441];
	"[1]irq_nm_i" -> "[1]nmi_mode_d";
	"[1]irq_nm_i" -> "[1]handle_irq";
	"[1]irq_nm_i" -> "[1]ctrl_fsm_ns";
	"[1]stall_branch_i"	 [complexity=37,
		importance=0.546383443635,
		rank=0.0147671200982];
	"[1]stall_branch_i" -> "[1]stall";
	"[1]mret_insn_i"	 [complexity=27,
		importance=0.283434619508,
		rank=0.0104975785003];
	"[1]mret_insn_i" -> "[1]mret_insn";
	"[1]nmi_mode_d" -> nmi_mode_q;
	"[1]wfi_insn_i"	 [complexity=27,
		importance=0.283434619508,
		rank=0.0104975785003];
	"[1]wfi_insn_i" -> "[1]wfi_insn";
	"[1]ebreak_into_debug" -> "[1]ctrl_fsm_ns";
	"[1]csr_mstatus_mie_i"	 [complexity=38,
		importance=0.540753088757,
		rank=0.014230344441];
	"[1]csr_mstatus_mie_i" -> "[1]handle_irq";
	ecall_insn -> exc_req_d;
	"[1]nmi_mode_q"	 [complexity=38,
		importance=0.544913647482,
		rank=0.0143398328285];
	"[1]nmi_mode_q" -> "[1]nmi_mode_d";
	"[1]nmi_mode_q" -> "[1]handle_irq";
	"[1]ecall_insn_i"	 [complexity=15,
		importance=0.256504075679,
		rank=0.017100271712];
	"[1]ecall_insn_i" -> "[1]ecall_insn";
	"[1]debug_ebreaku_i"	 [complexity=32,
		importance=0.171780794584,
		rank=0.00536814983075];
	"[1]debug_ebreaku_i" -> "[1]ebreak_into_debug";
	"[1]PRIV_LVL_U"	 [complexity=32,
		importance=0.171780794584,
		rank=0.00536814983075];
	"[1]PRIV_LVL_U" -> "[1]ebreak_into_debug";
	"[1]id_in_ready_o"	 [complexity=24,
		importance=0.16194024446,
		rank=0.00674751018584];
	"[1]id_in_ready_o" -> "[1]ctrl_fsm_ns";
	wfi_insn_i	 [complexity=30,
		importance=0.0906647943845,
		rank=0.00302215981282];
	wfi_insn_i -> wfi_insn;
	ebrk_insn -> exc_req_d;
	"[1]stall_multdiv_i"	 [complexity=37,
		importance=0.546383443635,
		rank=0.0147671200982];
	"[1]stall_multdiv_i" -> "[1]stall";
	"[1]PRIV_LVL_M"	 [complexity=24,
		importance=0.275771775913,
		rank=0.011490490663];
	"[1]PRIV_LVL_M" -> "[1]ebreak_into_debug";
	"[1]PRIV_LVL_M" -> "[1]illegal_umode";
	"[1]debug_single_step_i"	 [complexity=37,
		importance=0.712493880475,
		rank=0.0192565913642];
	"[1]debug_single_step_i" -> "[1]debug_mode_d";
	"[1]debug_single_step_i" -> "[1]enter_debug_mode";
	"[1]debug_single_step_i" -> "[1]ctrl_fsm_ns";
	"[1]handle_irq" -> "[1]nmi_mode_d";
	"[1]handle_irq" -> "[1]ctrl_fsm_ns";
	"[1]handle_irq" -> "[1]halt_if";
	debug_single_step_i	 [complexity=2,
		importance=0.0549558664182,
		rank=0.0274779332091];
	debug_single_step_i -> pc_mux_o;
	illegal_insn_d	 [complexity=15,
		importance=0.0675651207653,
		rank=0.00450434138436];
	illegal_dret -> illegal_insn_d;
	"[1]irq_pending_i"	 [complexity=38,
		importance=0.540753088757,
		rank=0.014230344441];
	"[1]irq_pending_i" -> "[1]handle_irq";
	"[1]irq_pending_i" -> "[1]ctrl_fsm_ns";
	"[1]instr_fetch_err_i"	 [complexity=15,
		importance=0.256504075679,
		rank=0.017100271712];
	"[1]instr_fetch_err_i" -> "[1]instr_fetch_err";
	csr_mstatus_mie_i	 [complexity=7,
		importance=0.139255105938,
		rank=0.0198935865626];
	csr_mstatus_mie_i -> handle_irq;
	handle_irq -> pc_mux_o;
	store_err_q -> pc_mux_o;
	store_err_i	 [complexity=11,
		importance=0.0526260556075,
		rank=0.00478418687341];
	store_err_i -> exc_req_lsu;
	"[1]BOOT_SET"	 [complexity=25,
		importance=0.157621459135,
		rank=0.00630485836538];
	"[1]BOOT_SET" -> "[1]ctrl_fsm_ns";
	illegal_umode -> illegal_insn_d;
	"[1]IRQ_TAKEN"	 [complexity=29,
		importance=0.46286914507,
		rank=0.0159610050024];
	"[1]IRQ_TAKEN" -> "[1]ctrl_fsm_ns";
	debug_req_i	 [complexity=2,
		importance=0.0549558664182,
		rank=0.0274779332091];
	debug_req_i -> pc_mux_o;
	"[1]DECODE"	 [complexity=33,
		importance=1.53123604585,
		rank=0.0464010922983];
	"[1]DECODE" -> "[1]ctrl_fsm_ns";
	illegal_insn_d -> exc_req_d;
	"[1]ctrl_fsm_ns" -> ctrl_fsm_cs;
	"[1]exc_req_d" -> "[1]special_req";
	"[1]exc_req_d" -> exc_req_q;
	illegal_insn_i	 [complexity=21,
		importance=0.072562736932,
		rank=0.00345536842533];
	illegal_insn_i -> illegal_insn_d;
	"[1]FLUSH"	 [complexity=18,
		importance=0.265332562055,
		rank=0.0147406978919];
	"[1]FLUSH" -> "[1]illegal_insn_d";
	"[1]FLUSH" -> "[1]ctrl_fsm_ns";
	"[1]FLUSH" -> "[1]exc_req_d";
	"[1]illegal_umode" -> "[1]illegal_insn_d";
	"[1]load_err_q"	 [complexity=26,
		importance=0.466349537508,
		rank=0.0179365206734];
	"[1]load_err_q" -> "[1]debug_mode_d";
	"[1]load_err_q" -> "[1]nmi_mode_d";
	"[1]load_err_q" -> "[1]ctrl_fsm_ns";
	"[1]load_err_i"	 [complexity=40,
		importance=0.554040538929,
		rank=0.0138510134732];
	"[1]load_err_d"	 [complexity=5,
		importance=0.23953707626,
		rank=0.0479074152519];
	"[1]load_err_i" -> "[1]load_err_d";
	"[1]load_err_i" -> "[1]exc_req_lsu";
	FLUSH	 [complexity=21,
		importance=0.072562736932,
		rank=0.00345536842533];
	FLUSH -> illegal_insn_d;
	FLUSH -> exc_req_d;
	"[1]csr_pipe_flush" -> "[1]special_req";
	"[1]csr_pipe_flush" -> "[1]ctrl_fsm_ns";
	"[1]load_err_d" -> load_err_q;
	irq_pending_i	 [complexity=7,
		importance=0.139255105938,
		rank=0.0198935865626];
	irq_pending_i -> handle_irq;
	"[1]DBG_TAKEN_ID"	 [complexity=25,
		importance=0.157621459135,
		rank=0.00630485836538];
	"[1]DBG_TAKEN_ID" -> "[1]ctrl_fsm_ns";
	csr_pipe_flush -> special_req;
	"[1]DBG_TAKEN_IF"	 [complexity=29,
		importance=0.46286914507,
		rank=0.0159610050024];
	"[1]DBG_TAKEN_IF" -> "[1]ctrl_fsm_ns";
	"[1]ebrk_insn" -> "[1]ctrl_fsm_ns";
	"[1]ebrk_insn" -> "[1]exc_req_d";
	"[1]halt_if" -> "[1]id_in_ready_o";
	mret_insn -> special_req;
	mret_insn -> pc_mux_o;
	mret_insn -> illegal_umode;
	exc_req_d -> special_req;
	ecall_insn_i	 [complexity=18,
		importance=0.0637342505564,
		rank=0.00354079169758];
	ecall_insn_i -> ecall_insn;
	exc_req_q -> pc_mux_o;
	"[1]stall" -> "[1]id_in_ready_o";
	"[1]stall" -> "[1]ctrl_fsm_ns";
	"[1]stall" -> "[1]halt_if";
	"[1]illegal_dret" -> "[1]illegal_insn_d";
	instr_fetch_err_i	 [complexity=18,
		importance=0.0637342505564,
		rank=0.00354079169758];
	instr_fetch_err_i -> instr_fetch_err;
	ctrl_fsm_cs -> pc_mux_o;
	ctrl_fsm_cs -> illegal_insn_d;
	ctrl_fsm_cs -> exc_req_d;
	"[1]stall_lsu_i"	 [complexity=37,
		importance=0.546383443635,
		rank=0.0147671200982];
	"[1]stall_lsu_i" -> "[1]stall";
	"[1]debug_ebreakm_i"	 [complexity=32,
		importance=0.171780794584,
		rank=0.00536814983075];
	"[1]debug_ebreakm_i" -> "[1]ebreak_into_debug";
	load_err_q -> pc_mux_o;
	priv_mode_i	 [complexity=27,
		importance=0.0830019507902,
		rank=0.00307414632556];
	priv_mode_i -> illegal_umode;
	ebrk_insn_i	 [complexity=18,
		importance=0.0637342505564,
		rank=0.00354079169758];
	ebrk_insn_i -> ebrk_insn;
	"[1]exc_req_lsu" -> "[1]special_req";
	load_err_i	 [complexity=11,
		importance=0.0526260556075,
		rank=0.00478418687341];
	load_err_i -> exc_req_lsu;
}
