strict digraph "" {
	node [label="\N"];
	"514:AS"	 [ast="<pyverilog.vparser.ast.Assign object at 0x7f801c8f2650>",
		def_var="['handle_irq']",
		fillcolor=deepskyblue,
		label="514:AS
handle_irq = ~debug_mode_q & (irq_nm_i & ~nmi_mode_q | irq_pending_i & csr_mstatus_mie_i);",
		statements="[]",
		style=filled,
		typ=Assign,
		use_var="['debug_mode_q', 'irq_nm_i', 'nmi_mode_q', 'irq_pending_i', 'csr_mstatus_mie_i']"];
}
