strict digraph "" {
	node [label="\N"];
	"528:IF"	 [ast="<pyverilog.vparser.ast.IfStatement object at 0x7f801c8f9710>",
		fillcolor=springgreen,
		label="528:IF",
		statements="[]",
		style=filled,
		typ=IfStatement];
	"529:BS"	 [ast="<pyverilog.vparser.ast.BlockingSubstitution object at 0x7f801c8f9550>",
		fillcolor=cadetblue,
		label="529:BS
mfip_id = 4'd8;",
		statements="[<pyverilog.vparser.ast.BlockingSubstitution object at 0x7f801c8f9550>]",
		style=filled,
		typ=BlockingSubstitution];
	"528:IF" -> "529:BS"	 [cond="['csr_mfip_i']",
		label="csr_mfip_i[8]",
		lineno=528];
	"530:IF"	 [ast="<pyverilog.vparser.ast.IfStatement object at 0x7f801c8f9750>",
		fillcolor=springgreen,
		label="530:IF",
		statements="[]",
		style=filled,
		typ=IfStatement];
	"528:IF" -> "530:IF"	 [cond="['csr_mfip_i']",
		label="!(csr_mfip_i[8])",
		lineno=528];
	"540:IF"	 [ast="<pyverilog.vparser.ast.IfStatement object at 0x7f801c8f2a10>",
		fillcolor=springgreen,
		label="540:IF",
		statements="[]",
		style=filled,
		typ=IfStatement];
	"542:IF"	 [ast="<pyverilog.vparser.ast.IfStatement object at 0x7f801c8f2a90>",
		fillcolor=springgreen,
		label="542:IF",
		statements="[]",
		style=filled,
		typ=IfStatement];
	"540:IF" -> "542:IF"	 [cond="['csr_mfip_i']",
		label="!(csr_mfip_i[3])",
		lineno=540];
	"541:BS"	 [ast="<pyverilog.vparser.ast.BlockingSubstitution object at 0x7f801c8ee150>",
		fillcolor=cadetblue,
		label="541:BS
mfip_id = 4'd3;",
		statements="[<pyverilog.vparser.ast.BlockingSubstitution object at 0x7f801c8ee150>]",
		style=filled,
		typ=BlockingSubstitution];
	"540:IF" -> "541:BS"	 [cond="['csr_mfip_i']",
		label="csr_mfip_i[3]",
		lineno=540];
	"543:BS"	 [ast="<pyverilog.vparser.ast.BlockingSubstitution object at 0x7f801c8f2ed0>",
		fillcolor=cadetblue,
		label="543:BS
mfip_id = 4'd2;",
		statements="[<pyverilog.vparser.ast.BlockingSubstitution object at 0x7f801c8f2ed0>]",
		style=filled,
		typ=BlockingSubstitution];
	"Leaf_515:AL"	 [def_var="['mfip_id']",
		label="Leaf_515:AL"];
	"543:BS" -> "Leaf_515:AL"	 [cond="[]",
		lineno=None];
	"533:BS"	 [ast="<pyverilog.vparser.ast.BlockingSubstitution object at 0x7f801c8f9410>",
		fillcolor=cadetblue,
		label="533:BS
mfip_id = 4'd6;",
		statements="[<pyverilog.vparser.ast.BlockingSubstitution object at 0x7f801c8f9410>]",
		style=filled,
		typ=BlockingSubstitution];
	"533:BS" -> "Leaf_515:AL"	 [cond="[]",
		lineno=None];
	"521:BS"	 [ast="<pyverilog.vparser.ast.BlockingSubstitution object at 0x7f801c9037d0>",
		fillcolor=cadetblue,
		label="521:BS
mfip_id = 4'd12;",
		statements="[<pyverilog.vparser.ast.BlockingSubstitution object at 0x7f801c9037d0>]",
		style=filled,
		typ=BlockingSubstitution];
	"521:BS" -> "Leaf_515:AL"	 [cond="[]",
		lineno=None];
	"529:BS" -> "Leaf_515:AL"	 [cond="[]",
		lineno=None];
	"523:BS"	 [ast="<pyverilog.vparser.ast.BlockingSubstitution object at 0x7f801c9035d0>",
		fillcolor=cadetblue,
		label="523:BS
mfip_id = 4'd11;",
		statements="[<pyverilog.vparser.ast.BlockingSubstitution object at 0x7f801c9035d0>]",
		style=filled,
		typ=BlockingSubstitution];
	"523:BS" -> "Leaf_515:AL"	 [cond="[]",
		lineno=None];
	"524:IF"	 [ast="<pyverilog.vparser.ast.IfStatement object at 0x7f801c8f9690>",
		fillcolor=springgreen,
		label="524:IF",
		statements="[]",
		style=filled,
		typ=IfStatement];
	"525:BS"	 [ast="<pyverilog.vparser.ast.BlockingSubstitution object at 0x7f801c8f9290>",
		fillcolor=cadetblue,
		label="525:BS
mfip_id = 4'd10;",
		statements="[<pyverilog.vparser.ast.BlockingSubstitution object at 0x7f801c8f9290>]",
		style=filled,
		typ=BlockingSubstitution];
	"524:IF" -> "525:BS"	 [cond="['csr_mfip_i']",
		label="csr_mfip_i[10]",
		lineno=524];
	"526:IF"	 [ast="<pyverilog.vparser.ast.IfStatement object at 0x7f801c8f96d0>",
		fillcolor=springgreen,
		label="526:IF",
		statements="[]",
		style=filled,
		typ=IfStatement];
	"524:IF" -> "526:IF"	 [cond="['csr_mfip_i']",
		label="!(csr_mfip_i[10])",
		lineno=524];
	"518:IF"	 [ast="<pyverilog.vparser.ast.IfStatement object at 0x7f801c903510>",
		fillcolor=springgreen,
		label="518:IF",
		statements="[]",
		style=filled,
		typ=IfStatement];
	"519:BS"	 [ast="<pyverilog.vparser.ast.BlockingSubstitution object at 0x7f801c9039d0>",
		fillcolor=cadetblue,
		label="519:BS
mfip_id = 4'd13;",
		statements="[<pyverilog.vparser.ast.BlockingSubstitution object at 0x7f801c9039d0>]",
		style=filled,
		typ=BlockingSubstitution];
	"518:IF" -> "519:BS"	 [cond="['csr_mfip_i']",
		label="csr_mfip_i[13]",
		lineno=518];
	"520:IF"	 [ast="<pyverilog.vparser.ast.IfStatement object at 0x7f801c903550>",
		fillcolor=springgreen,
		label="520:IF",
		statements="[]",
		style=filled,
		typ=IfStatement];
	"518:IF" -> "520:IF"	 [cond="['csr_mfip_i']",
		label="!(csr_mfip_i[13])",
		lineno=518];
	"525:BS" -> "Leaf_515:AL"	 [cond="[]",
		lineno=None];
	"544:IF"	 [ast="<pyverilog.vparser.ast.IfStatement object at 0x7f801c8f2ad0>",
		fillcolor=springgreen,
		label="544:IF",
		statements="[]",
		style=filled,
		typ=IfStatement];
	"545:BS"	 [ast="<pyverilog.vparser.ast.BlockingSubstitution object at 0x7f801c8f2cd0>",
		fillcolor=cadetblue,
		label="545:BS
mfip_id = 4'd1;",
		statements="[<pyverilog.vparser.ast.BlockingSubstitution object at 0x7f801c8f2cd0>]",
		style=filled,
		typ=BlockingSubstitution];
	"544:IF" -> "545:BS"	 [cond="['csr_mfip_i']",
		label="csr_mfip_i[1]",
		lineno=544];
	"547:BS"	 [ast="<pyverilog.vparser.ast.BlockingSubstitution object at 0x7f801c8f2b10>",
		fillcolor=cadetblue,
		label="547:BS
mfip_id = 4'd0;",
		statements="[<pyverilog.vparser.ast.BlockingSubstitution object at 0x7f801c8f2b10>]",
		style=filled,
		typ=BlockingSubstitution];
	"544:IF" -> "547:BS"	 [cond="['csr_mfip_i']",
		label="!(csr_mfip_i[1])",
		lineno=544];
	"522:IF"	 [ast="<pyverilog.vparser.ast.IfStatement object at 0x7f801c903590>",
		fillcolor=springgreen,
		label="522:IF",
		statements="[]",
		style=filled,
		typ=IfStatement];
	"522:IF" -> "523:BS"	 [cond="['csr_mfip_i']",
		label="csr_mfip_i[11]",
		lineno=522];
	"522:IF" -> "524:IF"	 [cond="['csr_mfip_i']",
		label="!(csr_mfip_i[11])",
		lineno=522];
	"542:IF" -> "543:BS"	 [cond="['csr_mfip_i']",
		label="csr_mfip_i[2]",
		lineno=542];
	"542:IF" -> "544:IF"	 [cond="['csr_mfip_i']",
		label="!(csr_mfip_i[2])",
		lineno=542];
	"532:IF"	 [ast="<pyverilog.vparser.ast.IfStatement object at 0x7f801c8f9790>",
		fillcolor=springgreen,
		label="532:IF",
		statements="[]",
		style=filled,
		typ=IfStatement];
	"532:IF" -> "533:BS"	 [cond="['csr_mfip_i']",
		label="csr_mfip_i[6]",
		lineno=532];
	"534:IF"	 [ast="<pyverilog.vparser.ast.IfStatement object at 0x7f801c8f97d0>",
		fillcolor=springgreen,
		label="534:IF",
		statements="[]",
		style=filled,
		typ=IfStatement];
	"532:IF" -> "534:IF"	 [cond="['csr_mfip_i']",
		label="!(csr_mfip_i[6])",
		lineno=532];
	"545:BS" -> "Leaf_515:AL"	 [cond="[]",
		lineno=None];
	"527:BS"	 [ast="<pyverilog.vparser.ast.BlockingSubstitution object at 0x7f801c903250>",
		fillcolor=cadetblue,
		label="527:BS
mfip_id = 4'd9;",
		statements="[<pyverilog.vparser.ast.BlockingSubstitution object at 0x7f801c903250>]",
		style=filled,
		typ=BlockingSubstitution];
	"527:BS" -> "Leaf_515:AL"	 [cond="[]",
		lineno=None];
	"547:BS" -> "Leaf_515:AL"	 [cond="[]",
		lineno=None];
	"515:BL"	 [ast="<pyverilog.vparser.ast.Block object at 0x7f801c903bd0>",
		fillcolor=turquoise,
		label="515:BL",
		statements="[]",
		style=filled,
		typ=Block];
	"516:IF"	 [ast="<pyverilog.vparser.ast.IfStatement object at 0x7f801c903c10>",
		fillcolor=springgreen,
		label="516:IF",
		statements="[]",
		style=filled,
		typ=IfStatement];
	"515:BL" -> "516:IF"	 [cond="[]",
		lineno=None];
	"531:BS"	 [ast="<pyverilog.vparser.ast.BlockingSubstitution object at 0x7f801c8f9f50>",
		fillcolor=cadetblue,
		label="531:BS
mfip_id = 4'd7;",
		statements="[<pyverilog.vparser.ast.BlockingSubstitution object at 0x7f801c8f9f50>]",
		style=filled,
		typ=BlockingSubstitution];
	"531:BS" -> "Leaf_515:AL"	 [cond="[]",
		lineno=None];
	"537:BS"	 [ast="<pyverilog.vparser.ast.BlockingSubstitution object at 0x7f801c8f9a90>",
		fillcolor=cadetblue,
		label="537:BS
mfip_id = 4'd5;",
		statements="[<pyverilog.vparser.ast.BlockingSubstitution object at 0x7f801c8f9a90>]",
		style=filled,
		typ=BlockingSubstitution];
	"537:BS" -> "Leaf_515:AL"	 [cond="[]",
		lineno=None];
	"526:IF" -> "528:IF"	 [cond="['csr_mfip_i']",
		label="!(csr_mfip_i[9])",
		lineno=526];
	"526:IF" -> "527:BS"	 [cond="['csr_mfip_i']",
		label="csr_mfip_i[9]",
		lineno=526];
	"517:BS"	 [ast="<pyverilog.vparser.ast.BlockingSubstitution object at 0x7f801c903c50>",
		fillcolor=cadetblue,
		label="517:BS
mfip_id = 4'd14;",
		statements="[<pyverilog.vparser.ast.BlockingSubstitution object at 0x7f801c903c50>]",
		style=filled,
		typ=BlockingSubstitution];
	"517:BS" -> "Leaf_515:AL"	 [cond="[]",
		lineno=None];
	"541:BS" -> "Leaf_515:AL"	 [cond="[]",
		lineno=None];
	"536:IF"	 [ast="<pyverilog.vparser.ast.IfStatement object at 0x7f801c8f9810>",
		fillcolor=springgreen,
		label="536:IF",
		statements="[]",
		style=filled,
		typ=IfStatement];
	"534:IF" -> "536:IF"	 [cond="['csr_mfip_i']",
		label="!(csr_mfip_i[5])",
		lineno=534];
	"535:BS"	 [ast="<pyverilog.vparser.ast.BlockingSubstitution object at 0x7f801c8f9c90>",
		fillcolor=cadetblue,
		label="535:BS
mfip_id = 4'd5;",
		statements="[<pyverilog.vparser.ast.BlockingSubstitution object at 0x7f801c8f9c90>]",
		style=filled,
		typ=BlockingSubstitution];
	"534:IF" -> "535:BS"	 [cond="['csr_mfip_i']",
		label="csr_mfip_i[5]",
		lineno=534];
	"516:IF" -> "518:IF"	 [cond="['csr_mfip_i']",
		label="!(csr_mfip_i[14])",
		lineno=516];
	"516:IF" -> "517:BS"	 [cond="['csr_mfip_i']",
		label="csr_mfip_i[14]",
		lineno=516];
	"536:IF" -> "537:BS"	 [cond="['csr_mfip_i']",
		label="csr_mfip_i[5]",
		lineno=536];
	"538:IF"	 [ast="<pyverilog.vparser.ast.IfStatement object at 0x7f801c8f9850>",
		fillcolor=springgreen,
		label="538:IF",
		statements="[]",
		style=filled,
		typ=IfStatement];
	"536:IF" -> "538:IF"	 [cond="['csr_mfip_i']",
		label="!(csr_mfip_i[5])",
		lineno=536];
	"530:IF" -> "532:IF"	 [cond="['csr_mfip_i']",
		label="!(csr_mfip_i[7])",
		lineno=530];
	"530:IF" -> "531:BS"	 [cond="['csr_mfip_i']",
		label="csr_mfip_i[7]",
		lineno=530];
	"515:AL"	 [ast="<pyverilog.vparser.ast.Always object at 0x7f801c903e50>",
		clk_sens=False,
		fillcolor=gold,
		label="515:AL",
		sens="[]",
		statements="[]",
		style=filled,
		typ=Always,
		use_var="['csr_mfip_i']"];
	"515:AL" -> "515:BL"	 [cond="[]",
		lineno=None];
	"538:IF" -> "540:IF"	 [cond="['csr_mfip_i']",
		label="!(csr_mfip_i[4])",
		lineno=538];
	"539:BS"	 [ast="<pyverilog.vparser.ast.BlockingSubstitution object at 0x7f801c8f9890>",
		fillcolor=cadetblue,
		label="539:BS
mfip_id = 4'd4;",
		statements="[<pyverilog.vparser.ast.BlockingSubstitution object at 0x7f801c8f9890>]",
		style=filled,
		typ=BlockingSubstitution];
	"538:IF" -> "539:BS"	 [cond="['csr_mfip_i']",
		label="csr_mfip_i[4]",
		lineno=538];
	"519:BS" -> "Leaf_515:AL"	 [cond="[]",
		lineno=None];
	"539:BS" -> "Leaf_515:AL"	 [cond="[]",
		lineno=None];
	"520:IF" -> "521:BS"	 [cond="['csr_mfip_i']",
		label="csr_mfip_i[12]",
		lineno=520];
	"520:IF" -> "522:IF"	 [cond="['csr_mfip_i']",
		label="!(csr_mfip_i[12])",
		lineno=520];
	"535:BS" -> "Leaf_515:AL"	 [cond="[]",
		lineno=None];
}
